<svg width="83" height="64" viewBox="0 0 83 64" fill="none" xmlns="http://www.w3.org/2000/svg">
<g clip-path="url(#clip0)">
<path d="M62.303 59.2684C73.4945 59.2684 82.567 50.1959 82.567 39.0045C82.567 27.813 73.4945 18.7405 62.303 18.7405C51.1116 18.7405 42.0391 27.813 42.0391 39.0045C42.0391 50.1959 51.1116 59.2684 62.303 59.2684Z" fill="#C2D500"/>
<path d="M15.9624 11.1301C14.8955 11.5528 13.9017 12.192 13.0461 13.0463C9.56203 16.5311 9.6759 22.316 13.3014 25.9419" stroke="#5B6670" stroke-width="3" stroke-miterlimit="10" stroke-linejoin="round"/>
<path d="M72.095 19.4415C72.1412 14.7773 70.4183 10.1313 66.9154 6.62709C59.9097 -0.37729 48.3299 -0.263426 41.1835 6.88236L36.7557 11.2802L32.3585 6.88236C25.2121 -0.263426 13.6341 -0.37729 6.62843 6.62709C-0.377867 13.6353 -0.263491 25.2127 6.88293 32.3598L36.777 62.2036L45.9678 53.0253" stroke="#5B6670" stroke-width="3" stroke-miterlimit="10" stroke-linejoin="round"/>
<path d="M77.5004 38.9314C77.5004 47.1128 70.8687 53.7446 62.686 53.7446C54.5158 53.7446 47.8816 47.1128 47.8816 38.9314C47.8816 30.7475 54.5158 24.1157 62.686 24.1157C70.8687 24.1157 77.5004 30.7475 77.5004 38.9314Z" stroke="#5B6670" stroke-width="3" stroke-miterlimit="10" stroke-linejoin="round"/>
<path d="M55.6465 38.9302C55.6465 35.9333 57.5152 33.3743 60.1493 32.3523" stroke="#5B6670" stroke-width="3" stroke-miterlimit="10" stroke-linejoin="round"/>
<path d="M71.5952 51.0002L78.8386 60.0697" stroke="#5B6670" stroke-width="3" stroke-miterlimit="10" stroke-linejoin="round"/>
</g>
<defs>
<clipPath id="clip0">
<rect width="82.54" height="63.6509" fill="white"/>
</clipPath>
</defs>
</svg>
