<svg width="62" height="69" viewBox="0 0 62 69" fill="none" xmlns="http://www.w3.org/2000/svg">
<g clip-path="url(#clip0)">
<path d="M28.15 49.3C39.2785 49.3 48.3 40.2785 48.3 29.15C48.3 18.0215 39.2785 9 28.15 9C17.0215 9 8 18.0215 8 29.15C8 40.2785 17.0215 49.3 28.15 49.3Z" fill="#C2D500"/>
<path d="M29.8198 15.258C33.3336 15.258 36.1924 18.1528 36.1924 21.7106C36.1924 25.2679 33.3336 28.1615 29.8198 28.1615C26.3061 28.1615 23.4474 25.268 23.4474 21.7106C23.4474 18.1528 26.3061 15.258 29.8198 15.258ZM29.8198 12.4473C24.7671 12.4473 20.671 16.5942 20.671 21.7106C20.671 26.8253 24.7671 30.9722 29.8198 30.9722C34.8736 30.9722 38.9687 26.8253 38.9687 21.7106C38.9687 16.5942 34.8736 12.4473 29.8198 12.4473Z" fill="#4A5765"/>
<path d="M28.0267 56.747C12.5729 56.747 0 44.0184 0 28.3728C0 12.7281 12.5729 0 28.0267 0C43.4813 0 56.0542 12.7281 56.0542 28.3728C56.0542 44.0184 43.4813 56.747 28.0267 56.747ZM28.0267 2.69829C14.0422 2.69829 2.66528 14.2161 2.66528 28.3728C2.66528 42.5305 14.0422 54.0487 28.0267 54.0487C42.0116 54.0487 53.3889 42.5305 53.3889 28.3728C53.3889 14.2161 42.0116 2.69829 28.0267 2.69829Z" fill="#4A5765"/>
<path d="M11.5303 33.6194C10.8579 33.6194 10.2797 33.1055 10.2068 32.4129C10.127 31.6549 10.0884 30.9356 10.0884 30.214C10.0884 23.9913 12.827 18.1626 17.6018 14.2232C18.1718 13.752 19.0113 13.8385 19.4767 14.4165C19.9418 14.994 19.8563 15.8442 19.2859 16.3146C15.1344 19.7397 12.7537 24.806 12.7537 30.214C12.7537 30.8389 12.7875 31.4648 12.8573 32.1275C12.935 32.8684 12.4049 33.5328 11.6731 33.6119C11.6253 33.6167 11.5776 33.6194 11.5303 33.6194Z" fill="#4A5765"/>
<path d="M19.23 47.0021H16.5647V39.7316C16.5647 35.8879 19.6534 32.761 23.45 32.761H36.1916C39.9883 32.761 43.077 35.8879 43.077 39.7316V44.0882H40.4117V39.7316C40.4117 37.3758 38.5186 35.4593 36.1916 35.4593H23.45C21.1231 35.4593 19.23 37.3758 19.23 39.7316V47.0021V47.0021Z" fill="#4A5765"/>
<path d="M54.4977 69C54.2652 69 54.0314 68.9886 53.7967 68.9649C51.9621 68.7796 50.3124 67.8872 49.152 66.4511L38.4509 53.6281L40.4872 51.8867L51.2012 64.726C51.9244 65.6201 52.9351 66.1665 54.0613 66.2798C55.1883 66.3966 56.285 66.0593 57.1521 65.3417L57.7942 64.8103C59.5936 63.318 59.8595 60.6206 58.3859 58.798L47.8184 46.1107L49.8556 44.3716L60.4356 57.0738C62.8523 60.0637 62.4189 64.4642 59.4817 66.8981L58.8396 67.4295C57.6037 68.4546 56.0832 69 54.4977 69Z" fill="#4A5765"/>
</g>
<defs>
<clipPath id="clip0">
<rect width="62" height="69" fill="white"/>
</clipPath>
</defs>
</svg>
