<svg width="84" height="70" viewBox="0 0 84 70" fill="none" xmlns="http://www.w3.org/2000/svg">
<g clip-path="url(#clip0)">
<path d="M21.0356 67.625C32.6336 67.625 42.0356 58.223 42.0356 46.625C42.0356 35.027 32.6336 25.625 21.0356 25.625C9.43766 25.625 0.0356445 35.027 0.0356445 46.625C0.0356445 58.223 9.43766 67.625 21.0356 67.625Z" fill="#C2D500"/>
<path d="M74.0964 57.2369C69.1221 64.1428 60.918 67.9618 54.515 67.9618H54.515C37.6494 67.9618 23.5565 56.125 20.0684 40.308C23.495 38.088 25.7642 34.2333 25.7642 29.8464V16.966C25.7642 16.966 49.3585 23.4957 66.1561 13.9465C67.9474 12.9282 70.0937 12.7159 71.7463 13.9465C74.293 15.843 77.4493 16.966 80.8689 16.966H81.9122V33.0935C81.9122 36.0151 80.0142 38.6116 77.2172 39.4556C70.0805 41.6091 55.1095 43.6253 34.3862 33.2636" stroke="#5B6670" stroke-width="3" stroke-miterlimit="10" stroke-linejoin="round"/>
<path d="M80.405 42.5867C80.2346 45.1517 79.7113 47.6202 78.8831 49.944C78.3213 51.5201 77.0022 52.7029 75.3804 53.1144C69.0332 54.7248 51.4918 57.1196 32.0729 41.8857" stroke="#5B6670" stroke-width="3" stroke-miterlimit="10" stroke-linejoin="round"/>
<path d="M16.5676 38.3719C5.43897 31.5051 1.4992 22.15 1.5 15.2568C1.50127 4.35668 16.4955 6.76562 23.9698 14.9582C24.5683 15.6142 25.1312 16.2846 25.6576 16.9653" stroke="#5B6670" stroke-width="3" stroke-miterlimit="10" stroke-linejoin="round"/>
<path d="M50.7512 12.3356C50.4675 8.83016 51.3689 5.75399 53.5719 3.74407C58.6911 -0.926325 68.9002 1.92895 76.3745 10.1215C76.9731 10.7776 77.5359 11.448 78.0623 12.1286" stroke="#5B6670" stroke-width="3" stroke-miterlimit="10" stroke-linejoin="round"/>
</g>
<defs>
<clipPath id="clip0">
<rect width="83.4121" height="69.4619" fill="white"/>
</clipPath>
</defs>
</svg>
