<?xml version="1.0" encoding="UTF-8"?>
<svg width="92px" height="97px" viewBox="0 0 92 97" version="1.1" xmlns="http://www.w3.org/2000/svg" xmlns:xlink="http://www.w3.org/1999/xlink">
    <title>Group 37</title>
    <defs>
        <polygon id="path-1" points="0 96.4516129 92 96.4516129 92 0 0 0"></polygon>
    </defs>
    <g id="Login-&amp;-Dashboard---Desktop" stroke="none" stroke-width="1" fill="none" fill-rule="evenodd">
        <g id="Home" transform="translate(-1190.000000, -1345.000000)">
            <g id="Support-Center" transform="translate(0.000000, 1089.000000)">
                <g id="Card" transform="translate(1108.500000, 225.000000)">
                    <g id="Group-37" transform="translate(81.500000, 31.000000)">
                        <path d="M56.3870968,32.6451613 L61.3916759,36.9872361 C62.9204548,38.3138028 63.8064516,40.2940201 63.8064516,42.3838672 L63.8064516,54.9032258" id="Stroke-1" stroke="#909093" stroke-width="1.48387097" stroke-linecap="square"></path>
                        <path d="M36.3548387,32.6451613 L31.3506939,36.9872361 C29.821915,38.3138028 28.9354839,40.2940201 28.9354839,42.3838672 L28.9354839,54.9032258" id="Stroke-3" stroke="#909093" stroke-width="1.48387097" stroke-linecap="square"></path>
                        <polyline id="Stroke-5" stroke="#909093" stroke-width="1.48387097" stroke-linecap="square" points="57.4777419 43.7741935 57.5222581 47.5768697 57.5222581 53.4193548"></polyline>
                        <polyline id="Stroke-7" stroke="#909093" stroke-width="1.48387097" stroke-linecap="square" points="35.2641935 43.7741935 35.2196774 47.5768697 35.2196774 53.4193548"></polyline>
                        <path d="M57.1290323,19.6610655 C57.1290323,25.6026264 52.3123038,30.4193548 46.370743,30.4193548 C40.4296317,30.4193548 35.6129032,25.6026264 35.6129032,19.6610655 C35.6129032,13.7199542 40.4296317,8.90322581 46.370743,8.90322581 C52.3123038,8.90322581 57.1290323,13.7199542 57.1290323,19.6610655 Z" id="Stroke-9" stroke="#909093" stroke-width="1.48387097" stroke-linecap="square"></path>
                        <path d="M9.64516129,23.7419355 L4.64101644,28.096618 C3.1122376,29.4270365 2.22580645,31.4134636 2.22580645,33.5089188 L2.22580645,51.1935484" id="Stroke-11" stroke="#909093" stroke-width="1.48387097" stroke-linecap="square"></path>
                        <polyline id="Stroke-13" stroke="#909093" stroke-width="1.48387097" stroke-linecap="square" points="8.5548871 35.6129032 8.50962903 39.2179493 8.50962903 49.7096774"></polyline>
                        <path d="M30.4193548,11.5002248 C30.4193548,17.4413361 25.602727,22.2580645 19.6612903,22.2580645 C13.7198536,22.2580645 8.90322581,17.4413361 8.90322581,11.5002248 C8.90322581,5.55866392 13.7198536,0.741935484 19.6612903,0.741935484 C25.602727,0.741935484 30.4193548,5.55866392 30.4193548,11.5002248 Z" id="Stroke-15" stroke="#909093" stroke-width="1.48387097" stroke-linecap="square"></path>
                        <path d="M83.0967742,23.7419355 L88.100919,28.096618 C89.6296979,29.4270365 90.516129,31.4134636 90.516129,33.5089188 L90.516129,51.1935484" id="Stroke-17" stroke="#909093" stroke-width="1.48387097" stroke-linecap="square"></path>
                        <polyline id="Stroke-19" stroke="#909093" stroke-width="1.48387097" stroke-linecap="square" points="84.1874194 35.6129032 84.2319355 39.2179493 84.2319355 49.7096774"></polyline>
                        <path d="M62.3225806,11.5002248 C62.3225806,17.4413361 67.1393091,22.2580645 73.0808699,22.2580645 C79.0219812,22.2580645 83.8387097,17.4413361 83.8387097,11.5002248 C83.8387097,5.55866392 79.0219812,0.741935484 73.0808699,0.741935484 C67.1393091,0.741935484 62.3225806,5.55866392 62.3225806,11.5002248 Z" id="Stroke-21" stroke="#909093" stroke-width="1.48387097" stroke-linecap="square"></path>
                        <path d="M73.2879258,3.70967742 C72.308241,3.70967742 71.3655873,3.88635503 70.483871,4.19241776 C73.6638623,5.29799128 76.0052622,8.193541 76.0052622,11.5 C76.0052622,14.806459 73.6638623,17.7024549 70.483871,18.8075822 C71.3655873,19.113645 72.308241,19.2903226 73.2879258,19.2903226 C77.8005698,19.2903226 81.6129032,15.7228626 81.6129032,11.5 C81.6129032,7.27713744 77.8005698,3.70967742 73.2879258,3.70967742" id="Fill-23" fill="#909093"></path>
                        <path d="M46.5782484,11.8709677 C45.5985636,11.8709677 44.6559099,12.0476454 43.7741935,12.3537081 C46.9546537,13.4592816 49.2955848,16.3548313 49.2955848,19.6612903 C49.2955848,22.9677493 46.9546537,25.8637452 43.7741935,26.9688726 C44.6559099,27.2749353 45.5985636,27.4516129 46.5782484,27.4516129 C51.0908924,27.4516129 54.9032258,23.8841529 54.9032258,19.6612903 C54.9032258,15.4384278 51.0908924,11.8709677 46.5782484,11.8709677" id="Fill-25" fill="#036A3F"></path>
                        <path d="M19.868571,3.70967742 C18.8888862,3.70967742 17.9462325,3.88635503 17.0645161,4.19241776 C20.2445075,5.29799128 22.5859074,8.193541 22.5859074,11.5 C22.5859074,14.806459 20.2445075,17.7024549 17.0645161,18.8075822 C17.9462325,19.113645 18.8888862,19.2903226 19.868571,19.2903226 C24.381215,19.2903226 28.1935484,15.7228626 28.1935484,11.5 C28.1935484,7.27713744 24.381215,3.70967742 19.868571,3.70967742" id="Fill-27" fill="#909093"></path>
                        <path d="M47.938552,79.3870968 L53.2380298,79.3870968 C58.29722,79.3870968 63.2398932,77.8641158 67.4267936,75.015914 L69.0272005,73.9270963 C70.432657,72.9701186 70.9100589,71.0843499 70.0649715,69.6063765 C70.0649715,69.6063765 70.0101133,69.5513673 69.907651,69.4563515 C67.4694106,67.1955203 64.0047336,66.5263179 60.8288552,67.498298 C54.7332542,69.3631541 49.7606584,67.0573154 49.7606584,67.0573154 C37.0988551,59.0914429 25.2572038,60.5034963 16.3225806,66.8827409" id="Stroke-29" stroke="#909093" stroke-width="1.48387097" stroke-linecap="square"></path>
                        <path d="M71.0743248,69.2369164 L79.0003167,66.0747986 C80.4247071,65.5066801 81.8987803,65.0607229 83.4093178,64.7914229 C84.7917742,64.5452836 86.3392319,64.4144938 87.3966994,64.7523676 C89.470156,65.4149455 90.9993815,67.170618 91.2368559,69.3277427 C91.3918296,70.7355504 90.687611,72.0993073 89.4482774,72.7927662 L65.4674683,86.2118984 C60.5420402,88.8009022 55.0012755,90.0415895 49.4413669,89.7259681 C28.3699608,88.530694 16.3225806,87.2700249 16.3225806,87.2700249" id="Stroke-31" stroke="#909093" stroke-width="1.48387097" stroke-linecap="square"></path>
                        <path d="M0.741935484,95.7096774 L13.7642243,95.7096774 C15.176878,95.7096774 16.3225806,94.5670118 16.3225806,93.1575424 L16.3225806,59.6811673 C16.3225806,58.2716979 15.176878,57.1290323 13.7642243,57.1290323 L0.741935484,57.1290323" id="Stroke-33" stroke="#909093" stroke-width="1.48387097" stroke-linecap="square"></path>
                        <mask id="mask-2" fill="white">
                            <use xlink:href="#path-1"></use>
                        </mask>
                        <g id="Clip-36"></g>
                        <polygon id="Fill-35" fill="#036A3F" mask="url(#mask-2)" points="8.16129032 92 11.8709677 92 11.8709677 61.5806452 8.16129032 61.5806452"></polygon>
                    </g>
                </g>
            </g>
        </g>
    </g>
</svg>