<?xml version="1.0" encoding="UTF-8"?>
<svg width="80px" height="91px" viewBox="0 0 80 91" version="1.1" xmlns="http://www.w3.org/2000/svg" xmlns:xlink="http://www.w3.org/1999/xlink">
    <title>Group 20</title>
    <defs>
        <polygon id="path-1" points="0 90 80 90 80 0 0 0"></polygon>
    </defs>
    <g id="Login-&amp;-Dashboard---Desktop" stroke="none" stroke-width="1" fill="none" fill-rule="evenodd">
        <g id="Home" transform="translate(-344.000000, -1348.000000)">
            <g id="Support-Center" transform="translate(0.000000, 1089.000000)">
                <g id="Card" transform="translate(256.000000, 225.000000)">
                    <g id="Group-20" transform="translate(88.000000, 34.000000)">
                        <path d="M39,49.5272444 L46.4727556,57 L78.4370771,25.0356785 C79.187641,24.2855256 79.187641,23.0688394 78.4370771,22.3182755 L73.6817245,17.5629229 C72.9315717,16.812359 71.7148854,16.812359 70.9643215,17.5629229 L39,49.5272444 Z" id="Stroke-1" stroke="#909093" stroke-width="1.36842105" stroke-linecap="square"></path>
                        <polyline id="Stroke-3" stroke="#909093" stroke-width="1.36842105" stroke-linecap="square" points="46 56.4769844 43.3020342 59.1749502 36.3987788 62 34.6993894 60.3006106 33 58.6012212 35.8250498 51.6975545 38.5230156 49"></polyline>
                        <line x1="35" y1="60" x2="31" y2="64" id="Stroke-5" stroke="#909093" stroke-width="1.36842105" stroke-linecap="square"></line>
                        <line x1="68" y1="36" x2="60" y2="28" id="Stroke-7" stroke="#909093" stroke-width="1.36842105" stroke-linecap="square"></line>
                        <path d="M42.5716645,1 L24.4283355,1 C23.6395653,1 23,1.62735274 23,2.40106141 L23,10.0424234 C23,11.6756766 24.3497004,13 26.0151509,13 L26.0607189,13 C27.3152508,13 28.3931562,12.2199624 28.8819034,11.0862973 C29.6424457,9.32211491 31.4236308,8.08362725 33.5,8.08362725 C35.5759659,8.08362725 37.3571511,9.32211491 38.1180966,11.0862973 C38.6068438,12.2199624 39.684346,13 40.9392811,13 L40.9848491,13 C42.6498963,13 44,11.6756766 44,10.0424234 L44,2.40106141 C44,1.62735274 43.3604347,1 42.5716645,1 Z" id="Stroke-9" stroke="#909093" stroke-width="1.36842105" stroke-linecap="square"></path>
                        <polyline id="Stroke-11" stroke="#909093" stroke-width="1.36842105" stroke-linecap="square" points="66 17 66 1 49 1"></polyline>
                        <path d="M17.8107503,1 L1,1 L1,90 L52.1294499,90 C54.4826002,90 56.3906156,88.0931075 56.3906156,85.7408336 L56.3906156,80.3941941 L61.7388343,80.3941941 C64.0923971,80.3941941 66,78.4873016 66,76.1350277 L66,45.5002062" id="Stroke-13" stroke="#909093" stroke-width="1.36842105" stroke-linecap="square"></path>
                        <mask id="mask-2" fill="white">
                            <use xlink:href="#path-1"></use>
                        </mask>
                        <g id="Clip-16"></g>
                        <polygon id="Stroke-15" stroke="#909093" stroke-width="1.36842105" stroke-linecap="square" mask="url(#mask-2)" points="11 65 21 65 21 55 11 55"></polygon>
                        <polygon id="Stroke-17" stroke="#909093" stroke-width="1.36842105" stroke-linecap="square" mask="url(#mask-2)" points="11 47 21 47 21 37 11 37"></polygon>
                        <polygon id="Stroke-18" stroke="#909093" stroke-width="1.36842105" stroke-linecap="square" mask="url(#mask-2)" points="11 30 21 30 21 20 11 20"></polygon>
                        <polygon id="Fill-19" fill="#0A6C37" mask="url(#mask-2)" points="22 85 5 68 5 85"></polygon>
                    </g>
                </g>
            </g>
        </g>
    </g>
</svg>