{
  "//": "Used for styling the style guide, itself.", 
  "css": [
  	"../css/styleguide.css"
  ], 
  "destination": "build/styleguide", 
  "homepage": "../styleguide-home.md", 
  "source": "styles", 
  "title": "Connected Communities Style Guide", 
  "verbose": true
}