[
   {
      "statusCode":400,
      "type":"exception",
      "ref":false,
      "action":"Unknown",
      "method":"Unknown",
      "message":"Unable to parse request - request null",
      "where":"",
      "data":"",
      "vfTx":true,
      "vfDbg":true
   }
]