[
   {
      "statusCode":200,
      "type":"rpc",
      "tid":3,
      "ref":false,
      "action":"skuid.RemotingStubs",
      "method":"proxy",
      "result":{
         "statusCode":400,
         "status":"Bad Request",
         "setCookies":[
            {
               "value":"6dKnlLwbRAmGh2rRHF2r8w",
               "secure":false,
               "path":"/",
               "name":"BrowserId",
               "httpOnly":false,
               "expires":"Mon, 10-Oct-2016 16:16:34 GMT",
               "domain":".salesforce.com"
            }
         ],
         "headers":{
            "Sforce-Limit-Info":"api-usage=291/83650000",
            "Content-Type":"application/json;charset=UTF-8",
            "Date":"Thu, 11 Aug 2016 16:16:34 GMT",
            "Content-Security-Policy-Report-Only":"default-src https:; script-src https: 'unsafe-inline' 'unsafe-eval'; style-src https: 'unsafe-inline'; img-src https: data:; font-src https: data:; report-uri /_/ContentDomainCSPNoAuth?type=mydomain",
            "Expires":"Thu, 01 Jan 1970 00:00:00 GMT",
            "Strict-Transport-Security":"max-age=31536000; includeSubDomains",
            "Transfer-Encoding":"chunked"
         },
         "error":null,
         "body":[
            {
               "message":"Invalid field in QueryResult: 'Shared_Job__c'",
               "errorCode":"JSON_PARSER_ERROR"
            }
         ]
      }
   },
   {
      "statusCode":200,
      "type":"rpc",
      "tid":4,
      "ref":false,
      "action":"skuid.RemotingStubs",
      "method":"proxy",
      "result":{
         "statusCode":400,
         "status":"Bad Request",
         "setCookies":[
            {
               "value":"xcB02vInTQ2khJ9UUDGDqQ",
               "secure":false,
               "path":"/",
               "name":"BrowserId",
               "httpOnly":false,
               "expires":"Mon, 10-Oct-2016 16:16:34 GMT",
               "domain":".salesforce.com"
            }
         ],
         "headers":{
            "Sforce-Limit-Info":"api-usage=290/83650000",
            "Content-Type":"application/json;charset=UTF-8",
            "Date":"Thu, 11 Aug 2016 16:16:34 GMT",
            "Content-Security-Policy-Report-Only":"default-src https:; script-src https: 'unsafe-inline' 'unsafe-eval'; style-src https: 'unsafe-inline'; img-src https: data:; font-src https: data:; report-uri /_/ContentDomainCSPNoAuth?type=mydomain",
            "Expires":"Thu, 01 Jan 1970 00:00:00 GMT",
            "Strict-Transport-Security":"max-age=31536000; includeSubDomains",
            "Transfer-Encoding":"chunked"
         },
         "error":null,
         "body":[
            {
               "message":"Invalid field in QueryResult: 'Shared_Job__c'",
               "errorCode":"JSON_PARSER_ERROR"
            }
         ]
      }
   }
]