[
   {
      "action":"skuid.RemotingStubs",
      "method":"proxy",
      "data":[
         {
            "url":"https://allegisgroup--comdev.cs83.my.salesforce.com/services/data/v37.0/composite/tree/Talent_Referral__c",
            "headers":{
               "User-Agent":"Mozilla/5.0 (Windows NT 6.1; WOW64) AppleWebKit/537.36 (KHTML, like Gecko) Chrome/52.0.2743.116 Safari/537.36",
               "Authorization":"Bearer 00D4E0000008tMV!AQEAQA9QOyzDCcTPDrwehD5.gOZ5uS1y4y_7_ZxB4WJpF12yog6kCOll4jbJKMuSqPE684Ix6JZKoyOYqaiJAfD0eGBtVHmX",
               "Content-Type":"application/json"
            },
            "method":"POST",
            "modelService":"SFDCREST",
            "contentType":"application/json",
            "body":{
               "First_Name__c":"My",
               "Phone__c":"",
               "Email__c":"foo19@bar.com",
               "Talent__c":"0014E00000EjDEhQAN",
               "Last_Name__c":"Friend19",
               "Shared_Job__c":true
            }
         }
      ],
      "type":"rpc",
      "tid":3,
      "ctx":{
         "csrf":"VmpFPSxNakF4Tmkwd09DMHhORlF4TlRvd05Eb3lOeTQzTVRGYSw2UXBtZTVENF9IUGs3VnRiMEpRcmhWLFpHUTJOR0l4",
         "vid":"0662400000410C3",
         "ns":"skuid",
         "ver":36
      }
   },
   {
      "action":"skuid.RemotingStubs",
      "method":"proxy",
      "data":[
         {
            "url":"https://allegisgroup--comdev.cs83.my.salesforce.com/services/data/v37.0/composite/tree/Talent_Referral__c",
            "headers":{
               "User-Agent":"Mozilla/5.0 (Windows NT 6.1; WOW64) AppleWebKit/537.36 (KHTML, like Gecko) Chrome/52.0.2743.116 Safari/537.36",
               "Authorization":"Bearer 00D4E0000008tMV!AQEAQA9QOyzDCcTPDrwehD5.gOZ5uS1y4y_7_ZxB4WJpF12yog6kCOll4jbJKMuSqPE684Ix6JZKoyOYqaiJAfD0eGBtVHmX",
               "Content-Type":"application/json"
            },
            "method":"POST",
            "modelService":"SFDCREST",
            "contentType":"application/json",
            "body":{
               "First_Name__c":"My",
               "Phone__c":"",
               "Email__c":"foo19@bar.com",
               "Talent__c":"0014E00000EjDEhQAN",
               "Last_Name__c":"Friend19",
               "Shared_Job__c":true
            }
         }
      ],
      "type":"rpc",
      "tid":4,
      "ctx":{
         "csrf":"VmpFPSxNakF4Tmkwd09DMHhORlF4TlRvd05Eb3lOeTQzTVRGYSw2UXBtZTVENF9IUGs3VnRiMEpRcmhWLFpHUTJOR0l4",
         "vid":"0662400000410C3",
         "ns":"skuid",
         "ver":36
      }
   }
]