{
    "id": "connectedcomponents",
    "components": [
        {
            "id": "xmlinclude"
        },
		{
            "id": "timeline"
        },
		{
            "id": "timelineactivity"
        },
        {
            "id": "filter"
        },
        {
            "id": "jsonmagiccomponent"
        },
        {
            "id": "htmlrender"
        },
        {
            "id": "timelineactivityv2"
        },
        {
            "id": "timelineactivityv2"
        },
        {
            "id": "timelinev2"
        },
        {
            "id": "search"
        }
    ],
    "js": [
        {
            "path": "components/xmlinclude/runtime.js"
        },
		{
            "path": "components/timeline/runtime.js"
        },
		{
            "path": "components/timelineactivity/runtime.js"
        },
        {
            "path": "components/filter/runtime.js"
        },
        {
            "path": "components/jsonmagiccomponent/runtime.js"
        },
        {
            "path": "components/htmlrender/runtime.js"
        },
        {
            "path": "libs/jsen/jsen.min.js"
        },
		{
            "path": "libs/select2/select2.full.min.js"
        },
		{
            "path": "foundation/runUtil.js"
        },
        {
            "path": "components/timelineactivityv2/runtime.js"
        },
        {
            "path": "components/timelineactivityv3/runtime.js"
        },
        {
            "path": "components/timelinev2/runtime.js"
        },
        {
            "path": "components/search/runtime.js"
        },
        {
            "path": "libs/esimakin-twbs-pagination-4a2f5ff/jquery.twbsPagination.min.js"
        },
        {
            "path": "libs/svg4everybody/svg4everybody.min.js"
        },
        {
            "path": "libs/moment/moment-with-locales.min.js"
        }
    ],
    "css": [
        {
            "path": "components/jsonmagiccomponent/runtime.css"
        },
        {
            "path": "components/htmlrender/runtime.css"
        },
        {
            "path": "components/timelineactivity/runtime.css"
        },
        {
            "path": "components/timelineactivityv2/runtime.css"
        },
        {
            "path": "components/timelineactivityv3/runtime.css"
        },
        {
            "path": "components/filter/runtime.css"
        },
		{
            "path": "libs/lightning/assets/styles/salesforce-lightning-design-system.min.css"
        },
        {
            "path": "libs/lightning/assets/styles/salesforce-lightning-design-system-vf.min.css"
        },
        {
            "path": "libs/lightning/assets/styles/salesforce-lightning-design-system-scoped.min.css"
        },
        {
            "path": "libs/lightning/assets/styles/salesforce-lightning-design-system-ltng.min.css"
        },
        {
            "path": "libs/lightning/assets/icons/action-sprite/svg/symbols.svg"
        },
        {
            "path": "libs/select2/select2.min.css"
        }
    ]
}
