{
   "id": "connectedcomponents",
   "components": [
      {
          "id": "xmlinclude",
          "folderId": "connectedcomponentfolder"
      },
  	  {
          "id": "timeline",
          "folderId": "connectedcomponentfolder"
      },
      {
          "id": "timelineactivity",
          "folderId": "connectedcomponentfolder"
      },
      {
          "id": "filter",
          "folderId": "connectedcomponentfolder"
      },
      {
           "id": "jsonmagiccomponent",
           "folderId": "connectedcomponentfolder"
      },
      {
           "id": "htmlrender",
           "folderId": "connectedcomponentfolder"
      },
      {
          "id": "timelineactivityv2",
          "folderId": "connectedcomponentfolder"
      },
      {
           "id": "timelineactivityv3",
           "folderId": "connectedcomponentfolder"
       },
       {
            "id": "timelinev2",
            "folderId": "connectedcomponentfolder"
        },
        {
             "id": "search",
             "folderId": "connectedcomponentfolder"
         }
   ],
   "folders": [
      {
         "id": "connectedcomponentfolder",
         "name": "Connected Components",
         "icon": "sk-icon-component-pack"
      }
   ],
   "js": [
      {
         "path": "components/xmlinclude/builder.js"
      },
      {
         "path": "components/timeline/builder.js"
      },
      {
         "path": "components/timelineactivity/builder.js"
      },
      {
         "path": "components/filter/builder.js"
      },
      {
         "path": "components/jsonmagiccomponent/builders.js"
      },
      {
         "path": "components/htmlrender/builder.js"
      },
      {
         "path": "foundation/buildUtil.js"
     },
     {
         "path": "components/timelineactivityv2/builder.js"
     },
     {
        "path": "components/timelineactivityv3/builder.js"
    },
    {
       "path": "components/timelinev2/builder.js"
    },
    {
      "path": "components/search/builder.js"
    }

   ]
}
