Position,LOV Name,Source System ID,Enabled
Assistant/Deputy General Counsel,MLA Position Code,MLAPOS.001,TRUE
Associate,MLA Position Code,MLAPOS.002,TRUE
Barrister,MLA Position Code,MLAPOS.003,TRUE
Business Partner,MLA Position Code,MLAPOS.004,TRUE
Chief Compliance Officer,MLA Position Code,MLAPOS.005,TRUE
Chief Executive Officer,MLA Position Code,MLAPOS.006,TRUE
Chief Financial Officer,MLA Position Code,MLAPOS.007,TRUE
Chief Human Resources Officer,MLA Position Code,MLAPOS.008,TRUE
Chief Information Officer,MLA Position Code,MLAPOS.009,TRUE
Chief Litigation Counsel,MLA Position Code,MLAPOS.010,TRUE
Chief Operating Officer,MLA Position Code,MLAPOS.011,TRUE
Chief Privacy Officer,MLA Position Code,MLAPOS.012,TRUE
Companys 1st General Counsel,MLA Position Code,MLAPOS.013,TRUE
Compliance,MLA Position Code,MLAPOS.014,TRUE
Consultant,MLA Position Code,MLAPOS.015,TRUE
Contract Attorney,MLA Position Code,MLAPOS.016,TRUE
Counsel/Consultant,MLA Position Code,MLAPOS.017,TRUE
C-Suite,MLA Position Code,MLAPOS.018,TRUE
Director,MLA Position Code,MLAPOS.019,TRUE
Executive (Non Legal),MLA Position Code,MLAPOS.020,TRUE
Executive VP,MLA Position Code,MLAPOS.021,TRUE
First VP,MLA Position Code,MLAPOS.022,TRUE
General Counsel,MLA Position Code,MLAPOS.023,TRUE
Head of Legal,MLA Position Code,MLAPOS.024,TRUE
Individual Contributor,MLA Position Code,MLAPOS.025,TRUE
Law Clerk,MLA Position Code,MLAPOS.026,TRUE
Law Firm  Director,MLA Position Code,MLAPOS.027,TRUE
Law Firm Chief,MLA Position Code,MLAPOS.028,TRUE
Law Firm Consultant,MLA Position Code,MLAPOS.029,TRUE
Law Firm Coordinator,MLA Position Code,MLAPOS.030,TRUE
Law Firm Manager,MLA Position Code,MLAPOS.031,TRUE
Law Firm Specialist,MLA Position Code,MLAPOS.032,TRUE
Legal Recruiter CN IEL,MLA Position Code,MLAPOS.033,TRUE
Legal Recruiter CN LFM,MLA Position Code,MLAPOS.034,TRUE
Legal Recruiter CN MLA,MLA Position Code,MLAPOS.035,TRUE
Manager,MLA Position Code,MLAPOS.036,TRUE
Managing Director,MLA Position Code,MLAPOS.037,TRUE
Paralegal,MLA Position Code,MLAPOS.038,TRUE
Partner,MLA Position Code,MLAPOS.039,TRUE
Principal,MLA Position Code,MLAPOS.040,TRUE
Private Company General Counsel,MLA Position Code,MLAPOS.041,TRUE
Public Company General Counsel,MLA Position Code,MLAPOS.042,TRUE
Regional Counsel,MLA Position Code,MLAPOS.043,TRUE
Regional GC,MLA Position Code,MLAPOS.044,TRUE
Senior Director,MLA Position Code,MLAPOS.045,TRUE
Senior VP,MLA Position Code,MLAPOS.046,TRUE
SPG EMEA,MLA Position Code,MLAPOS.047,TRUE
SPG EMEA In-House,MLA Position Code,MLAPOS.048,TRUE
SPG EMEA Private Practice,MLA Position Code,MLAPOS.049,TRUE
SPG EMEA PSL,MLA Position Code,MLAPOS.050,TRUE
VP,MLA Position Code,MLAPOS.051,TRUE
VP of Human Resources,MLA Position Code,MLAPOS.052,TRUE
VP of IP/Chief IP Counsel,MLA Position Code,MLAPOS.053,TRUE
