{
  "IcoMoonType": "selection",
  "icons": [
    {
      "icon": {
        "paths": [
          "M844 541.6l-32 32c-9 9-14 21.2-14 34v318.4h-700v-700h558c12.8 0 25-5 34-14l32-32c20.6-26.8 8.8-52-34-52h-592c-53 0-96 43-96 96v704c0 53 43 96 96 96h704c53 0 96-43 96-96v-352.4c0-42.8-21.8-64.2-52-34z",
          "M1151.8 44.6c0 0 0-0.2 0-0.2-0.2-1.4-0.4-3-0.6-4.4 0 0 0-0.2 0-0.2-0.2-1.4-0.6-2.8-1-4.2 0-0.2 0-0.2 0-0.4-0.4-1.4-0.8-2.8-1.4-4 0-0.2-0.2-0.4-0.2-0.4-0.6-1.4-1.2-2.6-1.8-3.8 0-0.2-0.2-0.4-0.2-0.6-0.6-1.2-1.4-2.4-2.2-3.6-0.2-0.2-0.2-0.4-0.4-0.6-0.8-1.2-1.6-2.4-2.6-3.6 0-0.2-0.2-0.2-0.2-0.4-1-1.2-2.2-2.4-3.2-3.6 0 0 0 0 0 0s0 0 0 0c-1.2-1.2-2.4-2.2-3.6-3.2-0.2 0-0.2-0.2-0.4-0.2-1.2-1-2.4-1.8-3.6-2.6-0.4-0.4-0.6-0.6-0.8-0.6-1.2-0.8-2.4-1.4-3.6-2.2-0.2 0-0.4-0.2-0.6-0.2-1.2-0.6-2.6-1.2-3.8-1.8-0.2 0-0.4-0.2-0.4-0.2-1.4-0.6-2.6-1-4-1.4-0.2 0-0.2 0-0.4 0-1.4-0.4-2.8-0.8-4.2-1 0 0-0.2 0-0.2 0-1.4-0.2-3-0.4-4.4-0.6 0 0-0.2 0-0.2 0-1.8-0.4-3.4-0.6-4.8-0.6h-266.6c-27 0-49 22-49 49s22 49 49 49h148.2l-525.6 525.8c-19.2 19.2-19.2 50.2 0 69.2 9.6 9.6 22.2 14.4 34.6 14.4s25-4.8 34.6-14.4l525.8-525.6v148.2c0 27 22 49 49 49s49-22 49-49v-266.6c0-1.4-0.2-3-0.2-4.4z"
        ],
        "attrs": [
          {},
          {}
        ],
        "width": 1152,
        "isMulticolor": false,
        "isMulticolor2": false,
        "grid": 0,
        "tags": [
          "external-link-alt"
        ]
      },
      "attrs": [
        {},
        {}
      ],
      "properties": {
        "order": 40,
        "id": 0,
        "name": "external-link",
        "prevSize": 32,
        "code": 59672
      },
      "setIdx": 0,
      "setId": 5,
      "iconIdx": 0
    },
    {
      "icon": {
        "paths": [
          "M1011.584 524.501l-213.291-213.333c-16.683-16.683-43.648-16.683-60.331 0s-16.683 43.648 0 60.331l140.501 140.501h-835.669c-23.595 0-42.667 19.115-42.667 42.667 0 23.595 19.072 42.667 42.667 42.667h835.669l-140.501 140.501c-16.683 16.683-16.683 43.648 0 60.331s43.648 16.683 60.331 0l213.291-213.291c16.683-16.683 16.469-43.904 0-60.373z"
        ],
        "attrs": [
          {}
        ],
        "isMulticolor": false,
        "isMulticolor2": false,
        "grid": 0,
        "tags": [
          "arrow right.2.3.1"
        ]
      },
      "attrs": [
        {}
      ],
      "properties": {
        "order": 35,
        "id": 39,
        "name": "arrow-line-right",
        "prevSize": 32,
        "code": 59671
      },
      "setIdx": 3,
      "setId": 2,
      "iconIdx": 0
    },
    {
      "icon": {
        "paths": [
          "M800.768 318.507h-182.101v-81.28c0-38.229 25.344-47.147 43.179-47.147s127.488 0 127.488 0v-168.192l-184.704-0.555c-167.552 0-199.296 125.355-199.296 205.653v91.477h-128v170.667h128c0 222.379 0 512 0 512h213.333c0 0 0-292.267 0-512h164.309l17.792-170.624z"
        ],
        "attrs": [
          {}
        ],
        "isMulticolor": false,
        "isMulticolor2": false,
        "grid": 0,
        "tags": [
          "logo facebook.2.3.1"
        ]
      },
      "attrs": [
        {}
      ],
      "properties": {
        "order": 6,
        "id": 38,
        "name": "facebook",
        "prevSize": 32,
        "code": 59648
      },
      "setIdx": 3,
      "setId": 2,
      "iconIdx": 1
    },
    {
      "icon": {
        "paths": [
          "M768 512c0 141.385-114.615 256-256 256s-256-114.615-256-256c0-141.385 114.615-256 256-256s256 114.615 256 256z",
          "M170.667 44.843c-15.061 2.176-29.355 6.443-42.667 12.843v304.981h42.667v-317.824z",
          "M256 359.339v-316.672h-42.667v320h40.405c0.683-1.152 1.536-2.219 2.261-3.328z",
          "M981.333 804.181v-612.181c0-82.347-66.987-149.333-149.333-149.333h-533.333v261.077c54.229-55.637 129.707-90.411 213.333-90.411 110.251 0 206.507 60.203 258.261 149.333h168.405v441.515c0 74.155-60.331 134.485-134.485 134.485h-584.363c-74.155 0-134.485-60.331-134.485-134.485v-716.373c-26.325 26.965-42.667 63.659-42.667 104.192v612.181c0 97.664 79.488 177.152 177.152 177.152h584.32c97.707 0 177.195-79.488 177.195-177.152zM917.333 298.667h-128c-11.776 0-21.333-9.557-21.333-21.333v-128c0-11.776 9.557-21.333 21.333-21.333h128c11.776 0 21.333 9.557 21.333 21.333v128c0 11.776-9.557 21.333-21.333 21.333z"
        ],
        "attrs": [
          {},
          {},
          {},
          {}
        ],
        "isMulticolor": false,
        "isMulticolor2": false,
        "grid": 0,
        "tags": [
          "logo instagram.2.3.1"
        ]
      },
      "attrs": [
        {},
        {},
        {},
        {}
      ],
      "properties": {
        "order": 7,
        "id": 37,
        "name": "instagram",
        "prevSize": 32,
        "code": 59649
      },
      "setIdx": 3,
      "setId": 2,
      "iconIdx": 2
    },
    {
      "icon": {
        "paths": [
          "M278.485 917.333h-213.333v-554.667h213.333v554.667zM171.435 277.333h-1.28c-64.469 0-106.155-50.432-106.155-105.856 0-56.704 43.008-102.912 108.672-102.912 65.749 0 106.155 47.701 107.477 104.405-0.043 55.424-41.728 104.363-108.715 104.363zM662.485 533.333c-47.147 0-85.333 38.229-85.333 85.333v298.667h-213.333c0 0 2.517-512 0-554.667h213.333v63.36c0 0 66.048-61.568 168.021-61.568 126.379 0 215.979 91.477 215.979 268.971v283.904h-213.333v-298.667c0-47.104-38.187-85.333-85.333-85.333z"
        ],
        "attrs": [
          {}
        ],
        "isMulticolor": false,
        "isMulticolor2": false,
        "grid": 0,
        "tags": [
          "logo linkedin.2.3.1"
        ]
      },
      "attrs": [
        {}
      ],
      "properties": {
        "order": 8,
        "id": 36,
        "name": "linkedin",
        "prevSize": 32,
        "code": 59650
      },
      "setIdx": 3,
      "setId": 2,
      "iconIdx": 3
    },
    {
      "icon": {
        "paths": [
          "M679.211 469.333h-359.211v128h225.152c-10.624 75.819-77.568 149.333-193.152 149.333-123.52 0-224-100.48-224-224s100.48-224 224-224c54.101 0 106.325 19.541 147.072 55.040l14.421 12.587 93.952-86.869-16.981-15.659c-65.152-60.032-149.845-93.099-238.464-93.099-194.091 0-352 157.909-352 352s157.909 352 352 352c243.797 0 330.667-181.845 330.667-352 0-11.477-0.555-22.827-1.621-34.005l-1.835-19.328z",
          "M938.667 469.333v-85.333h-128v85.333h-85.333v128h85.333v85.333h128v-85.333h85.333v-128z"
        ],
        "attrs": [
          {},
          {}
        ],
        "isMulticolor": false,
        "isMulticolor2": false,
        "grid": 0,
        "tags": [
          "logo new google plus.2.3.1"
        ]
      },
      "attrs": [
        {},
        {}
      ],
      "properties": {
        "order": 9,
        "id": 35,
        "name": "google",
        "prevSize": 32,
        "code": 59651
      },
      "setIdx": 3,
      "setId": 2,
      "iconIdx": 4
    },
    {
      "icon": {
        "paths": [
          "M1000.277 206.251c-34.731 15.488-64 16-95.019 0.683 40.021-23.979 41.856-40.832 56.32-86.144-37.461 22.229-78.976 38.4-123.136 47.104-35.328-37.632-85.717-61.227-141.483-61.227-107.093 0-193.877 86.869-193.877 193.877 0 15.189 1.707 29.995 4.992 44.203-161.109-8.064-304-85.248-399.616-202.581-16.683 28.629-26.24 61.952-26.24 97.493 0 67.285 34.261 126.592 86.229 161.365-31.787-1.024-61.653-9.728-87.765-24.235-0.043 0.811-0.043 1.579-0.043 2.432 0 93.952 66.816 172.288 155.563 190.123-28.416 7.723-58.368 8.917-87.595 3.371 24.704 76.971 96.299 133.035 181.12 134.613-82.987 65.024-185.856 92.117-287.061 80.256 85.845 54.997 187.691 87.083 297.216 87.083 356.608 0 551.595-295.424 551.595-551.637 0-8.448-0.128-16.768-0.512-25.088 37.845-27.307 83.328-52.779 109.312-91.691z"
        ],
        "attrs": [
          {}
        ],
        "isMulticolor": false,
        "isMulticolor2": false,
        "grid": 0,
        "tags": [
          "logo twitter bird.2.3.1"
        ]
      },
      "attrs": [
        {}
      ],
      "properties": {
        "order": 10,
        "id": 34,
        "name": "twitter",
        "prevSize": 32,
        "code": 59652
      },
      "setIdx": 3,
      "setId": 2,
      "iconIdx": 5
    },
    {
      "icon": {
        "paths": [
          "M855.979 170.667h-687.957c-92.629 0-168.021 75.435-168.021 168.064v389.163c0 92.672 75.392 168.107 168.021 168.107h688c92.587 0 167.979-75.435 167.979-168.107v-389.163c0-92.629-75.392-168.064-168.021-168.064zM705.621 534.656l-288.811 184.789c-3.499 2.219-7.509 3.371-11.477 3.371-3.541 0-7.040-0.896-10.24-2.645-6.827-3.712-11.093-10.923-11.093-18.688v-369.579c0-7.851 4.267-15.019 11.093-18.773 6.869-3.712 15.189-3.413 21.76 0.768l288.811 184.832c6.144 3.925 9.856 10.667 9.856 17.963-0.043 7.296-3.755 14.037-9.899 17.963z"
        ],
        "attrs": [
          {}
        ],
        "isMulticolor": false,
        "isMulticolor2": false,
        "grid": 0,
        "tags": [
          "logo youtube clip.2.3.1"
        ]
      },
      "attrs": [
        {}
      ],
      "properties": {
        "order": 11,
        "id": 33,
        "name": "youtube",
        "prevSize": 32,
        "code": 59653
      },
      "setIdx": 3,
      "setId": 2,
      "iconIdx": 6
    },
    {
      "icon": {
        "paths": [
          "M512 1024c282.325 0 512-229.675 512-512 0-282.283-229.675-512-512-512s-512 229.717-512 512c0 282.325 229.675 512 512 512zM341.333 320c0-15.744 16.64-26.155 30.891-19.072l384 192c15.659 7.893 15.659 30.293 0 38.187l-384 192c-14.123 6.997-30.891-3.2-30.891-19.115v-384z"
        ],
        "attrs": [
          {}
        ],
        "isMulticolor": false,
        "isMulticolor2": false,
        "grid": 0,
        "tags": [
          "play button 2.2.3.1"
        ]
      },
      "attrs": [
        {}
      ],
      "properties": {
        "order": 12,
        "id": 32,
        "name": "play",
        "prevSize": 32,
        "code": 59654
      },
      "setIdx": 3,
      "setId": 2,
      "iconIdx": 7
    },
    {
      "icon": {
        "paths": [
          "M981.333 469.333h-426.667v-426.624c0-23.595-18.176-42.709-41.771-42.709v0c-23.595 0-42.667 19.072-42.667 42.624l-0.384 426.709h-427.179c-23.595 0-42.667 19.072-42.667 42.667 0 23.552 19.072 42.667 42.667 42.667h427.093l-0.427 426.624c-0.043 23.552 19.029 42.667 42.581 42.709h0.043c23.552 0 42.667-19.072 42.709-42.624v-426.709h426.667c23.552 0 42.667-19.115 42.667-42.667 0-23.595-19.115-42.667-42.667-42.667z"
        ],
        "attrs": [
          {}
        ],
        "isMulticolor": false,
        "isMulticolor2": false,
        "grid": 0,
        "tags": [
          "add 1.2.3.1"
        ]
      },
      "attrs": [
        {}
      ],
      "properties": {
        "order": 26,
        "id": 30,
        "name": "plus",
        "prevSize": 32,
        "code": 59655
      },
      "setIdx": 3,
      "setId": 2,
      "iconIdx": 9
    },
    {
      "icon": {
        "paths": [
          "M981.76 469.333h-828.971l431.104-395.221c17.365-15.915 18.56-42.923 2.603-60.288-15.915-17.323-42.923-18.56-60.288-2.645l-512 469.333c-0.256 0.213-0.384 0.512-0.64 0.725-1.237 1.152-2.304 2.517-3.371 3.84-0.683 0.896-1.493 1.664-2.091 2.603-1.067 1.621-2.005 3.371-2.859 5.077-0.427 0.811-0.939 1.493-1.237 2.347-0.981 2.176-1.621 4.395-2.219 6.741-0.085 0.512-0.341 0.981-0.427 1.408-0.597 2.816-0.939 5.76-0.939 8.747s0.341 5.931 0.939 8.747c0.085 0.512 0.299 0.896 0.427 1.365 0.597 2.347 1.237 4.651 2.219 6.827 0.341 0.811 0.853 1.493 1.237 2.304 0.853 1.749 1.792 3.456 2.859 5.077 0.64 0.896 1.408 1.707 2.133 2.603 1.109 1.323 2.176 2.645 3.413 3.84 0.256 0.256 0.384 0.512 0.64 0.725l512 469.333c8.107 7.467 18.475 11.179 28.8 11.179 11.477 0 23.040-4.651 31.445-13.824 15.915-17.365 14.763-44.331-2.603-60.288l-431.147-395.221h828.971c23.552 0 42.667-19.072 42.667-42.667 0-23.552-19.115-42.667-42.667-42.667z"
        ],
        "attrs": [
          {}
        ],
        "isMulticolor": false,
        "isMulticolor2": false,
        "grid": 0,
        "tags": [
          "arrow left 7.2.3.1"
        ]
      },
      "attrs": [
        {}
      ],
      "properties": {
        "order": 27,
        "id": 28,
        "name": "arrow-left",
        "prevSize": 32,
        "code": 59656
      },
      "setIdx": 3,
      "setId": 2,
      "iconIdx": 11
    },
    {
      "icon": {
        "paths": [
          "M981.333 1024c-10.624 0-21.248-3.925-29.483-11.819l-490.667-469.333c-8.448-8.064-13.184-19.2-13.184-30.848s4.736-22.784 13.184-30.848l490.667-469.333c17.024-16.299 44.075-15.659 60.331 1.323 16.299 17.024 15.701 44.032-1.323 60.331l-458.453 438.528 458.453 438.485c17.024 16.299 17.621 43.307 1.323 60.331-8.405 8.747-19.627 13.184-30.848 13.184z",
          "M533.333 1024c-10.581 0-21.248-3.925-29.483-11.819l-490.667-469.333c-8.448-8.064-13.184-19.2-13.184-30.848s4.736-22.784 13.184-30.848l490.667-469.333c17.024-16.299 44.032-15.659 60.331 1.323 16.299 17.024 15.701 44.032-1.323 60.331l-458.453 438.528 458.453 438.485c17.024 16.299 17.621 43.307 1.323 60.331-8.405 8.747-19.627 13.184-30.848 13.184z"
        ],
        "attrs": [
          {},
          {}
        ],
        "isMulticolor": false,
        "isMulticolor2": false,
        "grid": 0,
        "tags": [
          "arrow left 9.2.3.1"
        ]
      },
      "attrs": [
        {},
        {}
      ],
      "properties": {
        "order": 28,
        "id": 26,
        "name": "angle-left-double",
        "prevSize": 32,
        "code": 59657
      },
      "setIdx": 3,
      "setId": 2,
      "iconIdx": 13
    },
    {
      "icon": {
        "paths": [
          "M789.333 1024c-9.728 0-19.541-3.328-27.563-10.069l-554.667-469.333c-9.6-8.149-15.104-20.053-15.104-32.597s5.504-24.448 15.104-32.597l554.667-469.333c18.005-15.147 44.928-13.013 60.117 5.035 15.232 17.963 12.971 44.885-4.992 60.117l-516.181 436.779 516.181 436.736c17.963 15.232 20.224 42.155 4.992 60.117-8.448 10.027-20.437 15.147-32.555 15.147z"
        ],
        "attrs": [
          {}
        ],
        "isMulticolor": false,
        "isMulticolor2": false,
        "grid": 0,
        "tags": [
          "arrow left 12.2.3.1"
        ]
      },
      "attrs": [
        {}
      ],
      "properties": {
        "order": 29,
        "id": 24,
        "name": "angle-left",
        "prevSize": 32,
        "code": 59658
      },
      "setIdx": 3,
      "setId": 2,
      "iconIdx": 15
    },
    {
      "icon": {
        "paths": [
          "M981.419 512h-835.669l140.501-140.501c16.683-16.683 16.683-43.648 0-60.331s-43.648-16.683-60.331 0l-213.333 213.333c-16.512 16.469-16.683 43.691 0 60.373l213.333 213.291c16.683 16.683 43.648 16.683 60.331 0s16.683-43.648 0-60.331l-140.501-140.501h835.669c23.552 0 42.667-19.072 42.667-42.667 0-23.552-19.115-42.667-42.667-42.667z"
        ],
        "attrs": [
          {}
        ],
        "isMulticolor": false,
        "isMulticolor2": false,
        "grid": 0,
        "tags": [
          "arrow left.2.3.1"
        ]
      },
      "attrs": [
        {}
      ],
      "properties": {
        "order": 30,
        "id": 22,
        "name": "arrow-line-left",
        "prevSize": 32,
        "code": 59659
      },
      "setIdx": 3,
      "setId": 2,
      "iconIdx": 17
    },
    {
      "icon": {
        "paths": [
          "M1023.488 503.253c-0.085-0.469-0.341-0.896-0.427-1.408-0.597-2.347-1.237-4.565-2.219-6.741-0.341-0.853-0.811-1.536-1.237-2.347-0.853-1.707-1.792-3.456-2.859-5.077-0.683-0.896-1.451-1.707-2.176-2.603-1.067-1.323-2.176-2.645-3.371-3.84-0.256-0.213-0.427-0.512-0.64-0.725l-512-469.333c-17.365-15.915-44.373-14.72-60.288 2.645s-14.763 44.373 2.603 60.288l431.147 395.221h-828.928c-23.595 0-42.667 19.115-42.667 42.667 0 23.595 19.072 42.667 42.667 42.667h828.971l-431.104 395.221c-17.365 15.957-18.56 42.923-2.603 60.288 8.363 9.216 19.84 13.824 31.403 13.824 10.325 0 20.608-3.712 28.843-11.221l512-469.333c0.213-0.213 0.384-0.469 0.64-0.725 1.237-1.152 2.304-2.517 3.413-3.84 0.725-0.896 1.451-1.664 2.133-2.603 1.067-1.621 2.005-3.328 2.859-5.077 0.427-0.811 0.939-1.493 1.237-2.304 0.981-2.176 1.621-4.523 2.219-6.827 0.085-0.469 0.341-0.896 0.427-1.365 0.555-2.773 0.896-5.717 0.896-8.704s-0.341-5.931-0.939-8.747z"
        ],
        "attrs": [
          {}
        ],
        "isMulticolor": false,
        "isMulticolor2": false,
        "grid": 0,
        "tags": [
          "arrow right 7.2.3.1"
        ]
      },
      "attrs": [
        {}
      ],
      "properties": {
        "order": 31,
        "id": 20,
        "name": "arrow-right",
        "prevSize": 32,
        "code": 59660
      },
      "setIdx": 3,
      "setId": 2,
      "iconIdx": 19
    },
    {
      "icon": {
        "paths": [
          "M42.667 1024c10.581 0 21.248-3.925 29.483-11.819l490.667-469.333c8.448-8.064 13.184-19.2 13.184-30.848s-4.736-22.784-13.184-30.848l-490.667-469.333c-16.981-16.299-44.032-15.659-60.331 1.365s-15.659 44.032 1.365 60.331l458.411 438.485-458.411 438.485c-17.024 16.299-17.621 43.307-1.323 60.331 8.363 8.747 19.584 13.184 30.805 13.184z",
          "M490.667 1024c10.581 0 21.248-3.925 29.483-11.819l490.667-469.333c8.448-8.064 13.184-19.2 13.184-30.848s-4.736-22.784-13.184-30.848l-490.667-469.333c-17.024-16.299-44.032-15.659-60.331 1.323-16.299 17.024-15.701 44.032 1.323 60.331l458.453 438.528-458.411 438.485c-17.024 16.299-17.621 43.307-1.323 60.331 8.363 8.747 19.584 13.184 30.805 13.184z"
        ],
        "attrs": [
          {},
          {}
        ],
        "isMulticolor": false,
        "isMulticolor2": false,
        "grid": 0,
        "tags": [
          "arrow right 9.2.3.1"
        ]
      },
      "attrs": [
        {},
        {}
      ],
      "properties": {
        "order": 32,
        "id": 18,
        "name": "angle-right-double",
        "prevSize": 32,
        "code": 59661
      },
      "setIdx": 3,
      "setId": 2,
      "iconIdx": 21
    },
    {
      "icon": {
        "paths": [
          "M234.709 1024c-12.117 0-24.149-5.12-32.597-15.104-15.232-17.963-12.971-44.885 4.992-60.117l516.181-436.779-516.181-436.736c-17.963-15.275-20.224-42.197-4.992-60.16 15.189-18.048 42.112-20.224 60.117-5.035l554.667 469.333c9.6 8.107 15.104 20.053 15.104 32.597s-5.504 24.448-15.104 32.597l-554.667 469.333c-8.021 6.741-17.835 10.069-27.52 10.069z"
        ],
        "attrs": [
          {}
        ],
        "isMulticolor": false,
        "isMulticolor2": false,
        "grid": 0,
        "tags": [
          "arrow right 12.2.3.1"
        ]
      },
      "attrs": [
        {}
      ],
      "properties": {
        "order": 33,
        "id": 16,
        "name": "angle-right",
        "prevSize": 32,
        "code": 59662
      },
      "setIdx": 3,
      "setId": 2,
      "iconIdx": 23
    },
    {
      "icon": {
        "paths": [
          "M512.085 527.36l430.72-342.613c-13.44-8.832-29.483-14.080-46.763-14.080h-768c-16.512 0-31.829 4.907-44.928 13.099l428.971 343.595z",
          "M971.264 216.576l-446.635 354.773c-7.595 5.717-17.749 5.717-25.344-0.043l-445.525-356.437c-6.827 12.245-11.051 26.112-11.093 41.131v469.333c0.043 47.061 38.315 85.333 85.376 85.333h767.915c47.061 0 85.333-38.272 85.376-85.333v-469.333c-0-14.293-3.84-27.605-10.069-39.424z"
        ],
        "attrs": [
          {},
          {}
        ],
        "isMulticolor": false,
        "isMulticolor2": false,
        "grid": 0,
        "tags": [
          "email.2.3.1"
        ]
      },
      "attrs": [
        {},
        {}
      ],
      "properties": {
        "order": 13,
        "id": 14,
        "name": "email",
        "prevSize": 32,
        "code": 59663
      },
      "setIdx": 3,
      "setId": 2,
      "iconIdx": 25
    },
    {
      "icon": {
        "paths": [
          "M533.333 597.333h-21.333v170.667h21.333c37.077 0 64-35.925 64-85.333s-26.923-85.333-64-85.333z",
          "M330.667 597.376h-32v64h32c17.621 0 32-14.336 32-32 0-17.621-14.379-32-32-32z",
          "M932.437 262.272l-256-256c-4.011-4.011-9.472-6.272-15.104-6.272h-554.667c-11.776 0-21.333 9.557-21.333 21.333v981.333c0 11.776 9.557 21.333 21.333 21.333h810.667c11.776 0 21.333-9.557 21.333-21.333v-725.333c0-5.675-2.261-11.093-6.229-15.061zM330.667 704.043h-32v85.291c0 11.776-9.557 21.333-21.333 21.333s-21.333-9.557-21.333-21.333v-213.291c0-11.776 9.557-21.333 21.333-21.333h53.333c41.173 0 74.667 33.536 74.667 74.667 0 41.216-33.493 74.667-74.667 74.667zM533.333 810.667h-42.667c-11.776 0-21.333-9.557-21.333-21.333v-213.333c0-11.776 9.557-21.333 21.333-21.333h42.667c60.8 0 106.667 54.997 106.667 128s-45.867 128-106.667 128zM810.667 597.333h-85.333v42.667h42.667c11.776 0 21.333 9.557 21.333 21.333s-9.557 21.333-21.333 21.333h-42.667v106.667c0 11.776-9.557 21.333-21.333 21.333s-21.333-9.557-21.333-21.333v-213.333c0-11.776 9.557-21.333 21.333-21.333h106.667c11.776 0 21.333 9.557 21.333 21.333s-9.557 21.333-21.333 21.333zM640 298.667v-256l256 256h-256z"
        ],
        "attrs": [
          {},
          {},
          {}
        ],
        "isMulticolor": false,
        "isMulticolor2": false,
        "grid": 0,
        "tags": [
          "file pdf 1.2.3.1"
        ]
      },
      "attrs": [
        {},
        {},
        {}
      ],
      "properties": {
        "order": 14,
        "id": 12,
        "name": "pdf",
        "prevSize": 32,
        "code": 59664
      },
      "setIdx": 3,
      "setId": 2,
      "iconIdx": 27
    },
    {
      "icon": {
        "paths": [
          "M659.755 256h-295.083c-27.776 68.693-42.283 140.203-44.459 213.333h384c-2.219-73.131-16.725-144.64-44.459-213.333z",
          "M279.765 512h-279.211c1.493 76.288 19.157 148.352 49.408 213.333h269.099c-23.765-71.637-36.864-143.019-39.296-213.333z",
          "M512.171 995.115l4.309-5.717c55.125-73.515 97.451-147.584 128.384-221.397h-265.387c30.976 73.813 73.301 147.968 128.469 221.525l4.224 5.589z",
          "M704 512h-383.573c2.645 70.101 16.555 141.397 42.197 213.333h299.093c25.685-71.936 39.637-143.232 42.283-213.333z",
          "M703.659 256c25.429 68.821 39.211 140.288 41.216 213.333h277.035c-6.187-77.227-29.611-149.547-66.603-213.333h-251.648z",
          "M63.232 256c-35.413 63.445-56.96 135.68-61.696 213.333h277.973c2.005-73.045 15.787-144.512 41.259-213.333h-257.536z",
          "M705.28 725.333h270.891c30.123-65.024 47.445-137.088 47.744-213.333h-279.296c-2.432 70.315-15.531 141.696-39.339 213.333z",
          "M473.813 1015.125c-60.971-81.323-107.051-164.181-139.477-247.125h-262.101c84.139 144.299 233.899 243.584 407.040 254.379l-5.461-7.253z",
          "M690.005 768c-32.384 82.859-78.464 165.717-139.392 246.955l-5.461 7.339c174.592-11.733 325.291-110.848 408.875-254.251h-264.021z",
          "M338.219 213.333c32.469-72.405 77.653-141.696 137.003-205.995l5.547-6.059c-165.035 9.472-304.981 90.197-390.656 212.053h248.107z",
          "M549.205 7.339c59.349 64.299 104.533 133.589 137.003 205.995h241.408c-87.168-120.832-225.707-201.941-383.701-211.669l5.291 5.675z",
          "M512.213 30.123l-5.675 6.144c-51.669 56.021-91.989 115.371-122.283 177.067h255.915c-30.251-61.696-70.613-121.045-122.283-177.024l-5.675-6.187z"
        ],
        "attrs": [
          {},
          {},
          {},
          {},
          {},
          {},
          {},
          {},
          {},
          {},
          {},
          {}
        ],
        "isMulticolor": false,
        "isMulticolor2": false,
        "grid": 0,
        "tags": [
          "globe 3.2.3.1"
        ]
      },
      "attrs": [
        {},
        {},
        {},
        {},
        {},
        {},
        {},
        {},
        {},
        {},
        {},
        {}
      ],
      "properties": {
        "order": 5,
        "id": 10,
        "name": "globe",
        "prevSize": 32,
        "code": 59665
      },
      "setIdx": 3,
      "setId": 2,
      "iconIdx": 29
    },
    {
      "icon": {
        "paths": [
          "M512 0.256c-188.203 0-341.333 153.088-341.333 341.333 0 181.077 310.315 653.099 323.541 673.067 3.925 5.931 10.624 9.6 17.792 9.6s13.824-3.627 17.792-9.6c13.227-19.968 323.541-491.989 323.541-673.067 0-188.203-153.131-341.333-341.333-341.333zM512 490.923c-82.347 0-149.333-67.029-149.333-149.333s66.987-149.333 149.333-149.333 149.333 67.029 149.333 149.333-66.987 149.333-149.333 149.333z"
        ],
        "attrs": [
          {}
        ],
        "isMulticolor": false,
        "isMulticolor2": false,
        "grid": 0,
        "tags": [
          "location pin 2.2.3.1"
        ]
      },
      "attrs": [
        {}
      ],
      "properties": {
        "order": 4,
        "id": 8,
        "name": "location",
        "prevSize": 32,
        "code": 59666
      },
      "setIdx": 3,
      "setId": 2,
      "iconIdx": 31
    },
    {
      "icon": {
        "paths": [
          "M11.563 2.645c-7.083 3.669-11.563 10.965-11.563 18.944v682.667c0 6.912 3.328 13.355 8.917 17.365l289.749 206.976v-735.104l-264.96-189.269c-6.485-4.608-15.019-5.291-22.144-1.579z",
          "M832 469.589c38.229 0 74.197 9.387 106.112 25.685 0.299-1.408 0.555-2.816 0.555-4.352v-256c0-6.912-3.328-13.355-8.96-17.365l-289.707-206.891v559.104c42.453-60.416 112.64-100.181 192-100.181z",
          "M341.333 928.597l256-182.869v-735.061l-256 182.827z",
          "M832 512.256c-105.856 0-192 86.144-192 192 0 85.419 121.131 247.595 175.616 312.363v0c4.053 4.864 10.027 7.637 16.384 7.637s12.331-2.773 16.384-7.637c55.211-67.072 175.616-226.091 175.616-312.363 0-105.856-86.144-192-192-192zM832 789.589c-47.104 0-85.333-38.272-85.333-85.333 0-47.019 38.229-85.333 85.333-85.333 47.061 0 85.333 38.315 85.333 85.333 0 47.061-38.272 85.333-85.333 85.333z"
        ],
        "attrs": [
          {},
          {},
          {},
          {}
        ],
        "isMulticolor": false,
        "isMulticolor2": false,
        "grid": 0,
        "tags": [
          "map pin 1.2.3.1"
        ]
      },
      "attrs": [
        {},
        {},
        {},
        {}
      ],
      "properties": {
        "order": 3,
        "id": 6,
        "name": "map",
        "prevSize": 32,
        "code": 59667
      },
      "setIdx": 3,
      "setId": 2,
      "iconIdx": 33
    },
    {
      "icon": {
        "paths": [
          "M938.624 754.816l-104.661-104.661c-42.709-42.752-111.872-42.752-154.667 0l-28.032 28.032c-109.653-90.709-214.955-196.011-305.451-305.493l28.032-28.032c42.624-42.624 42.624-112 0-154.624l-104.661-104.661c-42.709-42.752-111.915-42.752-154.667 0l-57.429 57.429c-53.035 52.992-61.483 137.003-20.053 199.68 167.851 253.739 390.699 476.587 644.48 644.437 61.867 40.917 145.451 34.261 199.68-20.053l57.429-57.429c42.837-42.709 42.667-112 0-154.624z"
        ],
        "attrs": [
          {}
        ],
        "isMulticolor": false,
        "isMulticolor2": false,
        "grid": 0,
        "tags": [
          "phone 5.2.3.1"
        ]
      },
      "attrs": [
        {}
      ],
      "properties": {
        "order": 15,
        "id": 4,
        "name": "phone",
        "prevSize": 32,
        "code": 59668
      },
      "setIdx": 3,
      "setId": 2,
      "iconIdx": 35
    },
    {
      "icon": {
        "paths": [
          "M384 768c90.923 0 174.464-31.957 240.341-84.992l326.741 328.405c16.597 16.725 43.563 16.768 60.331 0.128 16.725-16.64 16.768-43.648 0.171-60.331l-327.168-328.789c52.181-65.536 83.584-148.352 83.584-238.421 0-211.755-172.245-384-384-384s-384 172.245-384 384c0 211.712 172.245 384 384 384zM384 85.333c164.651 0 298.667 133.973 298.667 298.667 0 164.651-134.016 298.667-298.667 298.667-164.693 0-298.667-134.016-298.667-298.667 0-164.693 133.973-298.667 298.667-298.667z"
        ],
        "attrs": [
          {}
        ],
        "isMulticolor": false,
        "isMulticolor2": false,
        "grid": 0,
        "tags": [
          "search.3.3.1"
        ]
      },
      "attrs": [
        {}
      ],
      "properties": {
        "order": 16,
        "id": 2,
        "name": "search",
        "prevSize": 32,
        "code": 59669
      },
      "setIdx": 3,
      "setId": 2,
      "iconIdx": 37
    },
    {
      "icon": {
        "paths": [
          "M981.419 470.229l-938.752-0.896c-23.595 0-42.667 19.072-42.667 42.624-0.043 23.552 19.029 42.667 42.581 42.709h938.752c23.595 0 42.667-18.176 42.667-41.685 0.043-23.552-19.029-42.667-42.581-42.752z"
        ],
        "attrs": [
          {}
        ],
        "isMulticolor": false,
        "isMulticolor2": false,
        "grid": 0,
        "tags": [
          "subtract 1.2.3.1"
        ]
      },
      "attrs": [
        {}
      ],
      "properties": {
        "order": 34,
        "id": 1,
        "name": "minus",
        "prevSize": 32,
        "code": 59670
      },
      "setIdx": 3,
      "setId": 2,
      "iconIdx": 38
    }
  ],
  "height": 1024,
  "metadata": {
    "name": "icomoon"
  },
  "preferences": {
    "showGlyphs": true,
    "showQuickUse": true,
    "showQuickUse2": true,
    "showSVGs": true,
    "fontPref": {
      "prefix": "icon-",
      "metadata": {
        "fontFamily": "icomoon",
        "majorVersion": 1,
        "minorVersion": 0
      },
      "metrics": {
        "emSize": 1024,
        "baseline": 6.25,
        "whitespace": 50
      },
      "embed": false,
      "noie8": true,
      "ie7": false,
      "cssVars": true,
      "cssVarsFormat": "scss",
      "showSelector": false,
      "showMetrics": false
    },
    "imagePref": {
      "prefix": "icon-",
      "png": true,
      "useClassSelector": true,
      "color": 0,
      "bgColor": 16777215,
      "classSelector": ".icon"
    },
    "historySize": 50,
    "showCodes": true,
    "gridSize": 16
  }
}