{
   "uniqueId": "TC_ae_JobSearch",
   "type": "Desktop",
   "name": "ae_JobSearch",
   "module": "TC",
   "maxAutoSaves": 25,
   "masterPageUniqueId": null,
   "isMasterPage": false,
   "composerSettings": null
}