{
   "uniqueId": "TC_Employment_Profile",
   "type": "Desktop",
   "name": "Employment_Profile",
   "module": "TC",
   "maxAutoSaves": 25,
   "masterPageUniqueId": null,
   "isMasterPage": false,
   "composerSettings": null
}