{
   "uniqueId": "TC_JobSearch_Thanks",
   "type": "Desktop",
   "name": "JobSearch_Thanks",
   "module": "TC",
   "maxAutoSaves": 25,
   "masterPageUniqueId": "TC_template.master",
   "isMasterPage": false,
   "composerSettings": null
}