{
   "uniqueId": "TC_JobSearch__lightening__SFDC",
   "type": "Desktop",
   "name": "JobSearch__lightening__SFDC",
   "module": "TC",
   "maxAutoSaves": 25,
   "masterPageUniqueId": "TC_template.master",
   "isMasterPage": false,
   "composerSettings": "{\"skuid.model(SearchResults)\":{\"keywords\":\"milwaukee\",\"latitude\":\"40.0\",\"longitude\":\"80.0\",\"distance\":\"30.0\"},\"skuid.model(jobsearch)\":{\"distance\":\"100\",\"keywords\":\"Developer\",\"city\":\"baltimore\",\"state\":\"MD\",\"filters\":\"\",\"pgnum\":\"1\",\"userOpco\":\"teksystems\"}}"
}