{
   "uniqueId": "TC_linkedin-import-choices",
   "type": "Desktop",
   "name": "linkedin-import-choices",
   "module": "TC",
   "maxAutoSaves": 25,
   "masterPageUniqueId": "TC_template.master",
   "isMasterPage": false,
   "composerSettings": null
}