{
   "uniqueId": "TC_news-article",
   "type": "Desktop",
   "name": "news-article",
   "module": "TC",
   "maxAutoSaves": 25,
   "masterPageUniqueId": "TC_template.master",
   "isMasterPage": false,
   "composerSettings": null
}