{
   "uniqueId": "TC_TC_Admin_Page",
   "type": "Desktop",
   "name": "TC_Admin_Page",
   "module": "TC",
   "maxAutoSaves": 25,
   "masterPageUniqueId": null,
   "isMasterPage": false,
   "composerSettings": null
}