{
   "uniqueId": "TC_UserManagement__emea",
   "type": "Desktop",
   "name": "UserManagement__emea",
   "module": "TC",
   "maxAutoSaves": 25,
   "masterPageUniqueId": null,
   "isMasterPage": false,
   "composerSettings": null
}