<?xml version="1.0" encoding="utf-8"?>
<!-- Generator: Adobe Illustrator 23.0.4, SVG Export Plug-In . SVG Version: 6.00 Build 0) -->
<svg version="1.1" id="Layer_1" xmlns="http://www.w3.org/2000/svg" xmlns:xlink="http://www.w3.org/1999/xlink" x="0px" y="0px"
viewBox="0 0 108 108" style="enable-background:new 0 0 108 108;" xml:space="preserve">
<style type="text/css">
.st0-cr{fill:none;stroke:#F7941D;stroke-width:2;stroke-linecap:round;stroke-linejoin:round;stroke-miterlimit:10;}
.st1-cr{fill:none;stroke:#F7941D;stroke-width:2;stroke-linejoin:round;stroke-miterlimit:10;}
</style>
<g>
<line class="st0" x1="37.5" y1="59.3" x2="63.8" y2="59.3"/>
<line class="st0" x1="72.5" y1="59.3" x2="98.7" y2="59.3"/>
<rect x="37.5" y="44.8" class="st1-cr" width="61.2" height="40.8"/>
<rect x="63.8" y="56.4" class="st1-cr" width="8.7" height="11.7"/>
<path class="st1-cr" style="fill:none;" d="M56.5,44.8c0-6.4,5.2-11.7,11.7-11.7c6.4,0,11.7,5.2,11.7,11.7"/>
</g>
<g>
<path class="st1-cr" style="fill:none;" d="M16.1,37.4c0,1.4-1.1,2.5-2.5,2.5l-4.9,0c-1.4,0-2.5-1.1-2.5-2.5l0-12.3c0-1.4,1.1-2.5,2.5-2.5l4.9,0
c1.4,0,2.5,1.1,2.5,2.5L16.1,37.4z"/>

<rect x="16.1" y="44.8" transform="matrix(2.706992e-03 -1 1 2.706992e-03 -21.3872 73.1079)" class="st1-cr" width="19.7" height="4.9"/>

<rect x="14.8" y="63.3" transform="matrix(2.706992e-03 -1 1 2.706992e-03 -42.3678 93.9188)" class="st1-cr" width="22.2" height="9.8"/>
<path class="st1-cr" style="fill:none;" d="M42,37.5c0-4.8,3.9-8.6,8.6-8.6l0-3.7l-34.5-0.1l0,12.3L42,37.5z"/>
</g>
</svg>