<?xml version="1.0" encoding="utf-8"?>
<!-- Generator: Adobe Illustrator 23.0.4, SVG Export Plug-In . SVG Version: 6.00 Build 0) -->
<svg version="1.1" id="Layer_1" xmlns="http://www.w3.org/2000/svg" xmlns:xlink="http://www.w3.org/1999/xlink" x="0px" y="0px"
viewBox="0 0 97 98" style="enable-background:new 0 0 97 98;" xml:space="preserve">
<style type="text/css">
.st0-ir35{fill:#F6931D;}
.st1-ir35{fill:none;stroke:#F6931D;stroke-width:2.25;stroke-miterlimit:10;}
.st2-ir35{fill:none;stroke:#F6931D;stroke-width:2.25;stroke-linecap:round;stroke-miterlimit:10;}
</style>
<g>
<g>
<path class="st0-ir35" d="M17.9,34.3v19.6h-1.7V34.3H17.9z"/>
<path class="st0-ir35" d="M23.3,53.9V34.3h7.5c3.4,0,7.2,1.5,7.2,5.8c0,3.8-2.8,5.3-5.7,5.7l7,8.1h-2.1L30.4,46H25v7.9H23.3z M25,44.4
h6c2.6,0,5.4-1,5.4-4.3s-2.8-4.2-5.4-4.2h-6V44.4z"/>
<path class="st0-ir35" d="M50.9,43.9c2,0.5,4,1.9,4,4.9c0,3.6-3,5.4-6.7,5.4c-2.8,0-4.9-0.4-6.6-1.2v-1.7c1.8,0.9,3.8,1.3,6.5,1.3
c3.1,0,5.3-1.2,5.3-3.9c0-2.9-2.3-3.9-5.2-3.9h-2.8v-1.6l2.7,0c3.1,0,4.5-1.6,4.5-3.5c0-2.1-1.8-3.7-4.9-3.7
c-2.1,0-3.9,0.4-5.7,1.4v-1.6c1.7-0.8,3.6-1.3,5.9-1.3c3.9,0,6.3,2.2,6.3,5.1C54,41.6,52.9,43.4,50.9,43.9z"/>
<path class="st0-ir35" d="M70.2,34.8v1.6h-9.6L60.2,43c1.2-0.4,2.5-0.6,3.8-0.6c3.6,0,7.1,1.6,7.1,5.9c0,3.6-3,5.9-7.1,5.9
c-2.2,0-4.5-0.5-6.1-1.3v-1.6c1.7,0.8,3.8,1.3,5.9,1.3c3.4,0,5.6-1.6,5.6-4.3c0-3.3-2.8-4.4-6-4.4c-1.7,0-3.5,0.4-5.1,0.9l0.6-10
H70.2z"/>
</g>
</g>
<circle class="st1-ir35" cx="42.9" cy="43.9" r="37.3"/>
<line class="st2-ir35" x1="92.8" y1="93.8" x2="70.2" y2="71.2"/>
</svg>