<svg width="62" height="69" viewBox="0 0 62 69" fill="none" xmlns="http://www.w3.org/2000/svg">
<g clip-path="url(#clip0)">
<path d="M30.9999 57.8047C42.7451 57.8047 52.2665 48.1731 52.2665 36.292C52.2665 24.4109 42.7451 14.7793 30.9999 14.7793C19.2547 14.7793 9.7334 24.4109 9.7334 36.292C9.7334 48.1731 19.2547 57.8047 30.9999 57.8047Z" fill="#C2D500"/>
<path d="M31.0206 17.3893C26.2819 17.3893 22.4263 13.4887 22.4263 8.69423C22.4263 3.90022 26.2819 0 31.0206 0C35.7602 0 39.6162 3.90022 39.6162 8.69423C39.6162 13.4887 35.7602 17.3893 31.0206 17.3893ZM31.0206 2.68794C27.7467 2.68794 25.0834 5.38243 25.0834 8.69423C25.0834 12.0065 27.7467 14.7014 31.0206 14.7014C34.2949 14.7014 36.959 12.0065 36.959 8.69423C36.959 5.38243 34.2949 2.68794 31.0206 2.68794Z" fill="#4A5765"/>
<path d="M35.5509 69.0001L35.5267 48.8856L36.8553 48.8843C38.017 48.883 39.1103 48.4201 39.9355 47.5806C40.7606 46.7406 41.2139 45.6289 41.2122 44.4499V28.5751C41.2113 27.3992 40.7529 26.2884 39.9216 25.4493C39.0921 24.6119 37.9953 24.1508 36.8337 24.1508C36.832 24.1508 36.8302 24.1508 36.8285 24.1508H25.1605C24.0002 24.1526 22.903 24.6185 22.073 25.4628C21.2426 26.3072 20.7864 27.4215 20.7881 28.5996L20.7868 44.4744C20.7885 45.6477 21.2496 46.7572 22.0856 47.5972C22.9202 48.4359 24.0205 48.8974 25.1839 48.8974C25.1856 48.8974 25.1878 48.8974 25.1899 48.8974L26.5185 48.8957L26.5419 68.9966L23.8847 69.0001L23.8644 51.4602C22.4943 51.1977 21.2297 50.5258 20.2129 49.5038C18.8722 48.1567 18.1322 46.3714 18.1296 44.4761L18.1309 28.6014C18.1283 26.7084 18.8592 24.9199 20.1887 23.5672C21.5203 22.2127 23.2853 21.4655 25.1588 21.4629H36.8268C36.8294 21.4629 36.8328 21.4629 36.8354 21.4629C38.7046 21.4629 40.4665 22.2027 41.7986 23.5467C43.1315 24.8928 43.8676 26.6782 43.8693 28.5738V44.4481C43.8719 46.3412 43.1445 48.127 41.8202 49.4749C40.8125 50.5004 39.5549 51.1767 38.1874 51.4436L38.2081 68.9966L35.5509 69.0001Z" fill="#4A5765"/>
<path d="M52.0616 24.8967C47.3224 24.8967 43.4673 20.996 43.4673 16.2016C43.4673 11.4075 47.3224 7.50732 52.0616 7.50732C56.8007 7.50732 60.6568 11.4075 60.6568 16.2016C60.6568 20.996 56.8007 24.8967 52.0616 24.8967ZM52.0616 10.1953C48.7877 10.1953 46.1245 12.8898 46.1245 16.2016C46.1245 19.5138 48.7877 22.2087 52.0616 22.2087C55.3355 22.2087 57.9996 19.5138 57.9996 16.2016C57.9996 12.8898 55.3355 10.1953 52.0616 10.1953Z" fill="#4A5765"/>
<path d="M53.6644 68.9999L53.6394 52.4365L54.968 52.4348C56.1322 52.4339 57.2298 51.9702 58.0593 51.1293C58.8888 50.2885 59.3447 49.1773 59.343 48.0004L59.3248 36.2429C59.3239 35.0647 58.8663 33.9544 58.0351 33.1153C57.2048 32.2775 56.108 31.8164 54.9455 31.8164C54.9437 31.8164 54.9429 31.8164 54.9411 31.8164L48.0076 31.8172V29.1293L54.9394 29.1284C54.942 29.1284 54.9446 29.1284 54.9472 29.1284C56.8164 29.1284 58.5801 29.8682 59.9112 31.2126C61.2459 32.5592 61.9811 34.3446 61.982 36.2398L62.0001 47.9965C62.0027 49.8921 61.271 51.6788 59.9398 53.028C58.9295 54.0518 57.6692 54.7272 56.3 54.9941L56.3216 68.9964L53.6644 68.9999Z" fill="#4A5765"/>
<path d="M9.93941 24.8967C5.19983 24.8967 1.34424 20.996 1.34424 16.2016C1.34424 11.4075 5.19983 7.50732 9.93941 7.50732C14.6781 7.50732 18.5337 11.4075 18.5337 16.2016C18.5337 20.996 14.6781 24.8967 9.93941 24.8967ZM9.93941 10.1953C6.66508 10.1953 4.00142 12.8898 4.00142 16.2016C4.00142 19.5138 6.66508 22.2087 9.93941 22.2087C13.2133 22.2087 15.8765 19.5138 15.8765 16.2016C15.8766 12.8898 13.2133 10.1953 9.93941 10.1953Z" fill="#4A5765"/>
<path d="M8.3357 68.9999L5.67853 68.9964L5.69929 54.9941C4.33091 54.7272 3.07022 54.0518 2.0595 53.028C0.728318 51.6779 -0.00344216 49.8912 1.21741e-05 47.996L0.0173193 36.2385C0.0190464 34.3442 0.754704 32.5588 2.08805 31.2126C3.41967 29.8686 5.18333 29.1284 7.05383 29.1284C7.05642 29.1284 7.05902 29.1284 7.06161 29.1284L13.9917 29.1293V31.8172L7.06032 31.8164C7.05859 31.8164 7.05686 31.8164 7.05513 31.8164C5.89175 31.8164 4.79497 32.2775 3.96504 33.1153C3.1338 33.9544 2.6758 35.0647 2.67451 36.242L2.65719 48.0008C2.65503 49.1773 3.11087 50.2885 3.94037 51.1293C4.76987 51.9702 5.86751 52.4339 7.0309 52.4348L8.36035 52.4365L8.3357 68.9999Z" fill="#4A5765"/>
</g>
<defs>
<clipPath id="clip0">
<rect width="62" height="69" fill="white"/>
</clipPath>
</defs>
</svg>
