<?xml version="1.0" encoding="utf-8"?>
<!-- Generator: Adobe Illustrator 23.0.4, SVG Export Plug-In . SVG Version: 6.00 Build 0) -->
<svg version="1.1" id="Layer_1" xmlns="http://www.w3.org/2000/svg" xmlns:xlink="http://www.w3.org/1999/xlink" x="0px" y="0px"
viewBox="0 0 108 108" style="enable-background:new 0 0 108 108;" xml:space="preserve">
<style type="text/css">
.st0{fill:#F7941D;}
</style>
<g>
<g>
<path class="st0" d="M28.5,86.9H14.8c-0.4,0-0.8-0.3-0.8-0.8V58.8c0-0.4,0.3-0.8,0.8-0.8h13.6c0.4,0,0.8,0.3,0.8,0.8v27.4
C29.2,86.6,28.9,86.9,28.5,86.9z M15.6,85.4h12.1V59.5H15.6V85.4z"/>
<path class="st0" d="M56.2,89.7c-4.4,0-9.3-1.7-18.1-4.7c-2.9-1-6.1-2.1-9.9-3.4c-0.4-0.1-0.6-0.6-0.5-0.9
c0.1-0.4,0.6-0.6,0.9-0.5c3.8,1.3,7.1,2.4,10,3.4c19,6.6,19,6.6,37.4-3.2c4.2-2.2,9.3-5,15.8-8.2c-3-2.8-5.4-3.4-8.7-2.5l-15.1,5
c-0.4,0.1-0.8-0.1-0.9-0.5s0.1-0.8,0.5-0.9l15.1-5c4.1-1.2,7.3-0.1,11,3.6c0.2,0.2,0.2,0.4,0.2,0.7c0,0.2-0.2,0.4-0.4,0.6
c-6.9,3.5-12.4,6.4-16.7,8.7C66.4,87.2,61.7,89.7,56.2,89.7z"/>
<path class="st0" d="M64.2,76.6H45.5c-0.4,0-0.8-0.3-0.8-0.8S45,75,45.5,75h18.7c2.3,0,3.3-1.4,3.3-2.7c0-1.3-1-2.7-3.3-2.7H54
c-0.2,0-0.4-0.1-0.5-0.2c-2-2-7.4-6.6-14.8-6.6H28.5c-0.4,0-0.8-0.3-0.8-0.8s0.3-0.8,0.8-0.8h10.2c7.7,0,13.4,4.6,15.6,6.8h9.9
c3.2,0,4.8,2.1,4.8,4.2c0,1.1-0.4,2.1-1.3,2.9C66.9,76.1,65.7,76.6,64.2,76.6z"/>
</g>
<g>
<path class="st0" d="M63.7,51.3L63.7,51.3c-0.4,0-0.6-0.2-0.7-0.5l-3.9-12.2L54.5,47c-0.1,0.2-0.4,0.4-0.6,0.4
c-0.3,0-0.5-0.1-0.7-0.3l-3.8-5.2l-2.7,3.2c-0.1,0.2-0.4,0.3-0.6,0.3H32.9c-0.4,0-0.8-0.3-0.8-0.8s0.3-0.8,0.8-0.8h12.9l3.1-3.7
c0.1-0.2,0.4-0.3,0.6-0.3c0.2,0,0.4,0.1,0.6,0.3l3.7,5l4.9-8.8c0.1-0.3,0.4-0.4,0.7-0.4s0.5,0.2,0.6,0.5l3.9,12.2l2.5-4.4
c0.1-0.2,0.4-0.4,0.7-0.4h16.5c0.4,0,0.8,0.3,0.8,0.8s-0.3,0.8-0.8,0.8H67.5l-3.1,5.5C64.2,51.1,64,51.3,63.7,51.3z"/>
<path class="st0" d="M37.1,41.4c-0.3,0-0.6-0.2-0.7-0.4c-1.4-3-2.1-6-2.1-8.9c0-8.8,5.6-13.2,11.2-13.7c4.8-0.4,10.4,2.1,12.7,8.4
c2.3-6.4,8.1-9,13-8.5c5.4,0.5,10.9,4.6,10.9,12.7c0,3.1-1,6.5-2.8,10.1c-0.2,0.4-0.6,0.5-1,0.3s-0.5-0.6-0.3-1
c1.8-3.3,2.7-6.5,2.7-9.4c0-7.2-4.8-10.8-9.5-11.2c-4.9-0.4-10.8,2.6-12.1,10.1c-0.1,0.4-0.4,0.6-0.7,0.6s-0.7-0.3-0.7-0.6
c-1.3-7.5-7-10.4-11.8-10c-4.9,0.4-9.8,4.4-9.8,12.2c0,2.6,0.7,5.4,1.9,8.2c0.2,0.4,0,0.8-0.4,1C37.3,41.4,37.2,41.4,37.1,41.4z"
/>
<path class="st0" d="M58.2,62.9c-0.1,0-0.3,0-0.4-0.1c-0.1-0.1-9.4-5.6-16.2-13.7c-0.3-0.3-0.2-0.8,0.1-1.1s0.8-0.2,1.1,0.1
c5.8,7,13.6,12,15.4,13.2c1.7-1.2,8.7-6.5,14.4-13.2c0.3-0.3,0.7-0.4,1.1-0.1c0.3,0.3,0.4,0.7,0.1,1.1c-6.6,7.8-15,13.7-15.1,13.7
C58.5,62.9,58.4,62.9,58.2,62.9z"/>
</g>
</g>
</svg>