<?xml version="1.0" encoding="utf-8"?>
<!-- Generator: Adobe Illustrator 23.0.4, SVG Export Plug-In . SVG Version: 6.00 Build 0) -->
<svg version="1.1" id="Layer_1" xmlns="http://www.w3.org/2000/svg" xmlns:xlink="http://www.w3.org/1999/xlink" x="0px" y="0px"
viewBox="0 0 108 108" style="enable-background:new 0 0 108 108;" xml:space="preserve">
<style type="text/css">
.st0{fill:#F7941D;}
</style>
<g>
<path class="st0" d="M25.4,83.1c-0.2,0-0.4-0.1-0.5-0.2C17.2,75.1,13,64.9,13,54c0-22.6,18.4-41,41-41s41,18.4,41,41
c0,10.9-4.2,21.1-11.8,28.8c-0.3,0.3-0.7,0.3-1,0.1c-3.4-2.3-9.4-4.5-15.9-6.9c-1.8-0.7-3.7-1.4-5.6-2.1c-0.3-0.1-0.5-0.4-0.5-0.7
v-8.8c0-0.3,0.2-0.6,0.5-0.7c0.2-0.1,4.7-1.7,4.7-9.8c0-0.4,0.3-0.8,0.8-0.8c0.9,0,1.4-1.4,1.4-2.8c0-1.3-0.5-2.8-1.4-2.8
c-0.4,0-0.8-0.3-0.8-0.8c0-0.3,0.1-0.7,0.4-1.7c0.8-2.4,2.2-6.9,1.3-10.4c-0.8-3.2-6.1-4.7-10.7-4.7s-9.9,1.5-10.7,4.7
c-0.1,0.4-0.5,0.6-0.9,0.6c-1.6-0.3-2.7-0.1-3.4,0.6c-1.7,1.9-0.2,7.1,0.4,9.3c0.3,1,0.4,1.3,0.4,1.6c0,0.4-0.3,0.8-0.8,0.8
c-0.9,0-1.4,1.4-1.4,2.8c0,1.3,0.5,2.8,1.4,2.8c0.4,0,0.8,0.3,0.8,0.8c0,8.1,4.6,9.7,4.7,9.8c0.3,0.1,0.5,0.4,0.5,0.7v8.8
c0,0.3-0.2,0.6-0.5,0.7c-1.7,0.7-3.5,1.3-5.3,2c-6.2,2.2-12.6,4.6-16.2,7C25.7,83,25.5,83.1,25.4,83.1z M54,14.5
c-21.8,0-39.5,17.7-39.5,39.5c0,10.3,3.9,20,11,27.4c3.8-2.4,10-4.7,16-6.8c1.6-0.6,3.2-1.2,4.8-1.8V65c-1.4-0.7-5-3.2-5.2-10.4
c-1.3-0.4-2.2-2-2.2-4.1c0-2,0.8-3.6,2-4.1c-0.1-0.2-0.1-0.4-0.2-0.7c-0.8-2.9-2.3-8.3,0-10.7c0.9-1,2.3-1.4,4.1-1.1
c1.4-3.6,6.9-5.2,11.9-5.2c5.3,0,11.1,1.8,12.1,5.8c1,3.9-0.5,8.6-1.4,11.2c-0.1,0.2-0.2,0.5-0.2,0.7c1.2,0.5,2,2,2,4.1
s-0.9,3.7-2.2,4.1c-0.2,7.2-3.9,9.7-5.2,10.4v7.7c1.7,0.6,3.5,1.3,5.1,1.9c6.2,2.2,12.1,4.4,15.7,6.7c7.1-7.4,11-17.1,11-27.3
C93.5,32.2,75.8,14.5,54,14.5z"/>
<path class="st0" d="M54,95c-11,0-21.4-4.3-29.2-12.2l1.1-1.1c7.5,7.6,17.5,11.7,28.1,11.7c10.7,0,20.6-4.2,28.1-11.8l1.1,1.1
C75.4,90.7,65.1,95,54,95z"/>
</g>
</svg>