<svg xml:space="preserve" style="enable-background:new 0 0 108 108;" viewBox="0 0 108 108" y="0px" x="0px" xmlns:xlink="http://www.w3.org/1999/xlink" xmlns="http://www.w3.org/2000/svg" id="Layer_1" version="1.1">
<style type="text/css">
    .st0{fill:#F7941D;}
</style>
<g>
    <path d="M75.3,54.7H55.9c-0.4,0-0.8-0.3-0.8-0.8s0.3-0.8,0.8-0.8H75l23.1-15.4c0.3-0.2,0.8-0.1,1,0.2s0.1,0.8-0.2,1
        L75.7,54.6C75.6,54.7,75.5,54.7,75.3,54.7z" class="st0"></path>
    <path d="M75.3,62.5H55.9c-0.4,0-0.8-0.3-0.8-0.8s0.3-0.8,0.8-0.8H75l23.1-15.4c0.3-0.2,0.8-0.1,1,0.2s0.1,0.8-0.2,1
        L75.7,62.4C75.6,62.5,75.5,62.5,75.3,62.5z" class="st0"></path>
    <path d="M75.3,70.2H55.9c-0.4,0-0.8-0.3-0.8-0.8s0.3-0.8,0.8-0.8H75l23.1-15.4c0.3-0.2,0.8-0.1,1,0.2s0.1,0.8-0.2,1
        L75.7,70.1C75.6,70.2,75.5,70.2,75.3,70.2z" class="st0"></path>
    <path d="M75.3,78H55.9c-0.4,0-0.8-0.3-0.8-0.8s0.3-0.8,0.8-0.8H75L98.1,61c0.3-0.2,0.8-0.1,1,0.2s0.1,0.8-0.2,1
        L75.7,77.9C75.6,78,75.5,78,75.3,78z" class="st0"></path>
    <path d="M55.9,81.9H28.8c-0.4,0-0.8-0.3-0.8-0.8V44.3c0-0.2,0.1-0.5,0.3-0.6l23.2-17.4c0.1-0.1,0.3-0.1,0.5-0.1h27.1
        c0.3,0,0.6,0.2,0.7,0.5s0,0.6-0.3,0.8L56.7,44.7v36.4C56.7,81.5,56.4,81.9,55.9,81.9z M29.6,80.4h25.6V44.3c0-0.2,0.1-0.5,0.3-0.6
        l21.4-16.1H52.3L29.6,44.7V80.4z" class="st0"></path>
    <path d="M28.8,54.7H9.4c-0.4,0-0.8-0.3-0.8-0.8s0.3-0.8,0.8-0.8h19.4c0.4,0,0.8,0.3,0.8,0.8S29.2,54.7,28.8,54.7z" class="st0"></path>
    <path d="M28.8,62.5H9.4c-0.4,0-0.8-0.3-0.8-0.8S9,61,9.4,61h19.4c0.4,0,0.8,0.3,0.8,0.8S29.2,62.5,28.8,62.5z" class="st0"></path>
    <path d="M28.8,70.2H9.4c-0.4,0-0.8-0.3-0.8-0.8s0.3-0.8,0.8-0.8h19.4c0.4,0,0.8,0.3,0.8,0.8S29.2,70.2,28.8,70.2z" class="st0"></path>
    <path d="M28.8,78H9.4c-0.4,0-0.8-0.3-0.8-0.8s0.3-0.8,0.8-0.8h19.4c0.4,0,0.8,0.3,0.8,0.8S29.2,78,28.8,78z" class="st0"></path>
    <path d="M75.3,47H55.9v-1.5H75l21-14H74V30h24.5c0.3,0,0.6,0.2,0.7,0.5s0,0.7-0.3,0.8L75.7,46.9
        C75.6,47,75.5,47,75.3,47z" class="st0"></path>
    <path d="M28.8,47H9.4c-0.3,0-0.6-0.2-0.7-0.5s0-0.7,0.3-0.8l23.2-15.5c0.1-0.1,0.3-0.1,0.4-0.1h14.2v1.5h-14l-21,14
        h16.9L28.8,47L28.8,47z" class="st0"></path>
    <path d="M42.4,76.1c-0.4,0-0.8-0.3-0.8-0.8v-3.9c0-0.4,0.3-0.8,0.8-0.8s0.8,0.3,0.8,0.8v3.9
        C43.1,75.7,42.8,76.1,42.4,76.1z" class="st0"></path>
    <path d="M42.4,48.9c-0.4,0-0.8-0.3-0.8-0.8v-3.9c0-0.4,0.3-0.8,0.8-0.8s0.8,0.3,0.8,0.8v3.9
        C43.1,48.6,42.8,48.9,42.4,48.9z" class="st0"></path>
    <path d="M42.4,72.2c-3.6,0-6.6-2.9-6.6-6.6c0-0.4,0.3-0.8,0.8-0.8s0.8,0.3,0.8,0.8c0,2.8,2.3,5.1,5.1,5.1
        s5.1-2.3,5.1-5.1c0-2.8-2.3-5.1-5.1-5.1c-3.6,0-6.6-2.9-6.6-6.6s2.9-6.6,6.6-6.6s6.6,2.9,6.6,6.6c0,0.4-0.3,0.8-0.8,0.8
        s-0.8-0.3-0.8-0.8c0-2.8-2.3-5.1-5.1-5.1s-5.1,2.3-5.1,5.1s2.3,5.1,5.1,5.1c3.6,0,6.6,2.9,6.6,6.6C48.9,69.2,46,72.2,42.4,72.2z" class="st0"></path>
</g>
</svg> 