{
   "skills":{
      "data":"java"
   },
   "certifications":{
      "data":"sfdc"
   },
   "industries":{
      "data":"aeronautics,IT"
   },
   "goals":{
      "data":"pilot"
   },
   "interests":{
      "data":""
   },
   "linkedin":{
      "apiStandardProfileRequest":{
         "headers":{
            "_total":1,
            "values":[
               {
                  "name":"x-li-auth-token",
                  "value":"name:tKYd"
               }
            ]
         },
         "url":"https://api.linkedin.com/v1/people/uPpFTNq0Py"
      },
      "currentShare":{
         "attribution":{
            "share":{
               "author":{
                  "firstName":"Mark",
                  "id":"beTPlOUmVC",
                  "lastName":"Tucker"
               },
               "id":"s6222195513882611712"
            }
         },
         "author":{
            "firstName":"Bob",
            "id":"uPpFTNq0Py",
            "lastName":"Burdekin"
         },
         "content":{
            "description":"Learn an entirely new way to manage and develop Salesforce apps across the entire lifecycle, enabling new levels of productivity, collaboration, and control.",
            "eyebrowUrl":"https://www.salesforce.com/products/platform/products/salesforce-dx/",
            "resolvedUrl":"https://www.salesforce.com/products/platform/products/salesforce-dx/",
            "shortenedUrl":"https://lnkd.in/djuMrZx",
            "submittedImageUrl":"https://media.licdn.com/media-proxy/ext?w=225&amp;h=137&amp;f=n&amp;hash=9uxbo6xH%2FohuHapW8prQ3eLac...",
            "submittedUrl":"https://www.salesforce.com/products/platform/products/salesforce-dx/",
            "thumbnailUrl":"https://media.licdn.com/media-proxy/ext?w=80&amp;h=100&amp;f=&amp;hash=gSRKHxCd3%2BN0N87ATOEBkOHvq5g...",
            "title":"Salesforce DX"
         },
         "id":"s6189800205500575744",
         "source":{
            "serviceProvider":{
               "name":"LINKEDIN"
            }
         },
         "timestamp":1475763369000,
         "visibility":{
            "code":"anyone"
         }
      },
      "firstName":"Bob",
      "formattedName":"Bob Burdekin",
      "headline":"UI Engineer at Allegis Group",
      "id":"uPpFTNq0Py",
      "industry":"Information Technology and Services",
      "lastName":"Burdekin",
      "location":{
         "country":{
            "code":"us"
         },
         "name":"Baltimore, Maryland Area"
      },
      "numConnections":500,
      "numConnectionsCapped":true,
      "pictureUrl":"https://media.licdn.com/mpr/mprx/0_r7IZBBgEEGlgeuRptHSbBzj5e3_pEERptD0FBzDZBXBDva2yyWRNJvMnQ7iGdSVrA...",
      "positions":{
         "_total":2,
         "values":[
            {
               "company":{
                  "id":2153,
                  "industry":"Staffing &amp; Recruiting",
                  "name":"Allegis Group",
                  "size":"10001+",
                  "type":"Privately Held"
               },
               "id":787798626,
               "isCurrent":true,
               "location":{

               },
               "startDate":{
                  "month":3,
                  "year":2016
               },
               "title":"UI Engineer"
            },
            {
               "company":{
                  "name":"Strongmov.es"
               },
               "id":240632675,
               "isCurrent":true,
               "location":{

               },
               "startDate":{
                  "month":12,
                  "year":2006
               },
               "summary":"Web Development and App Development on a variety of projects using Laravel 5, AngularJS, JavaScript, CoffeeScript, Sharepoint, PHP, HTML, CSS, MySQL, Drupal, Wordpress",
               "title":"Freelance Software Engineer / Front End Developer"
            }
         ]
      },
      "publicProfileUrl":"https://www.linkedin.com/in/bobburdekin",
      "summary":"Specialties: Web Development, App Development, Project Management, Customer Service, Sales, Marketing, Promotions, Small Business Consulting, SEO and Social Media Marketing"
   }
}