{
	"FilterCriteria":[
		{
			"fieldSlug":"isAllocation",
			"component":"lwcFacetSelect",
			"reqSearchParams":[
				"flt.allocated_recruiter_count"
			],
			"displayTitle":{
				"en_US":"Allocation",
				"fr_CA":"Allocation"
			},
			"defaultFacet":true,
			"selected":true,
			"selectable":true,
			"isToggle":true,
			"selectedValues":[],
			"options":[
				{ "label":"All reqs", "value":""},
				{ "label":"Has allocation", "value":"[1,100]" },
				{ "label":"No allocation", "value":"[0,0]" }
			]
		},
		{
			"fieldSlug":"isExclusive",
			"component":"lwcFacetSelect",
			"reqSearchParams":[
				"flt.is_exclusive"
			],
			"displayTitle":{
				"en_US":"Exclusive",
				"fr_CA":"Exclusive"
			},
			"defaultFacet":true,
			"selected":true,
			"selectable":true,
			"isToggle":true,
			"selectedValues":[],
			"options":[
				{ "label":"All reqs", "value":"" },
				{ "label":"Yes", "value":"true" },
				{ "label":"No", "value":"false" }
			]
		},
		{
			"fieldSlug":"isRemote",
			"component":"lwcFacetSelect",
			"reqSearchParams":[
			"flt.work_remote"
			],
			"displayTitle":{
			"en_US":"Remote",
			"fr_CA":"Remote"
			},
			"defaultFacet":true,
			"selected":true,
			"selectable":true,
			"isToggle":true,
			"selectedValues":[],
			"options":[
				{ "label":"All reqs", "value":"" },
				{ "label":"Yes", "value":"true" },
				{ "label":"No", "value":"false" }
			]
		},
		{
			"fieldSlug":"isVMS",
			"component":"lwcFacetSelect",
			"reqSearchParams":[
			"flt.req_vms"
			],
			"displayTitle":{
			"en_US":"VMS",
			"fr_CA":"VMS"
			},
			"defaultFacet":true,
			"selected":true,
			"selectable":true,
			"isToggle":true,
			"selectedValues":[],
			"options":[
				{ "label":"All reqs", "value":"" },
				{ "label":"Yes", "value":"true" },
				{ "label":"No", "value":"false" }
			]
		},
		{
			"fieldSlug":"isSubVendor",
			"component":"lwcFacetSelect",
			"reqSearchParams":[
				"flt.can_use_approved_sub_vendor"
			],
			"displayTitle":{
				"en_US":"Sub-Vendor",
				"fr_CA":"Sub-Vendor"
			},
			"defaultFacet":true,
			"selected":true,
			"selectable":true,
			"isToggle":true,
			"selectedValues":[],
			"options":[
				{ "label":"All reqs", "value":"" },
				{ "label":"Yes", "value":"true" },
				{ "label":"No", "value":"false" }
			]
		},
		{
			"fieldSlug":"skill_specialty",
			"component":"lwcFacetCheckboxTypeahead",
			"facetsRequest":[
				{
					"facetKey":"facetOption.req_skill_specialty",
					"facetValue":"true"
				},
				{
					"facetKey":"facetOption.req_skill_specialty.size",
					"facetValue":"50"
				},
				{
					"facetKey":"facetOption.req_skill_specialty.contains",
					"facetValue":"--value--"
				}
			],
			"incomingFacetData":{
				"items":"aggregations.req_skill_specialty_filter.req_skill_specialty.buckets",
				"name":"key",
				"count":"doc_count"
			},
			"reqSearchParams":[
				"facetFlt.req_skill_specialty"
			],
			"displayTitle":{
				"en_US":"Skill Specialties",
				"fr_CA":"Skill Specialties"
			},
			"allowFreeText":false,
			"defaultFacet":true,
			"selected":true,
			"selectable":true,
			"isToggle":false,
			"selectedValues":[]
		},
		{
			"fieldSlug":"req_industy",
			"component":"lwcFacetCheckboxTypeahead",
			"facetsRequest":[
				{
					"facetKey":"facetOption.req_skill_specialty",
					"facetValue":"true"
				},
				{
					"facetKey":"facetOption.req_skill_specialty.size",
					"facetValue":"50"
				},
				{
					"facetKey":"facetOption.req_skill_specialty.contains",
					"facetValue":"--value--"
				}
			],
			"incomingFacetData":{
				"items":"aggregations.req_skill_specialty_filter.req_skill_specialty.buckets",
				"name":"key",
				"count":"doc_count"
			},
			"reqSearchParams":[
				"facetFlt.req_skill_specialty"
			],
			"displayTitle":{
				"en_US":"Industries",
				"fr_CA":"Industries"
			},
			"allowFreeText":false,
			"defaultFacet":true,
			"selected":false,
			"selectable":false,
			"isToggle":false,
			"selectedValues":[]
		},
		{
			"fieldSlug":"organization_name",
			"component":"lwcFacetCheckboxTypeahead",
			"facetsRequest":[
				{
					"facetKey":"facetOption.organization_name",
					"facetValue":"true"
				},
				{
					"facetKey":"facetOption.organization_name.size",
					"facetValue":"50"
				},
				{
					"facetKey":"facetOption.organization_name.contains",
					"facetValue":"--value--"
				}
			],
			"incomingFacetData":{
				"items":"aggregations.organization_name_filter.organization_name.buckets",
				"name":"key",
				"count":"doc_count"
			},
			"reqSearchParams":[
				"facetFlt.organization_name"
			],
			"displayTitle":{
				"en_US":"Accounts",
				"fr_CA":"Accounts"
			},
			"allowFreeText":false,
			"defaultFacet":true,
			"selected":true,
			"selectable":true,
			"isToggle":false,
			"selectedValues":[]
		},
		{
			"fieldSlug":"req_stage",
			"component":"lwcFacetCheckboxTypeahead",
			"facetsRequest":[
				{
					"facetKey":"facetOption.req_stage",
					"facetValue":"true"
				},
				{
					"facetKey":"facetOption.req_stage.size",
					"facetValue":"50"
				},
				{
					"facetKey":"facetOption.req_stage.contains",
					"facetValue":"--value--"
				}
			],
			"incomingFacetData":{
				"items":"aggregations.req_stage_filter.req_stage.buckets",
				"name":"key",
				"count":"doc_count"
			},
			"reqSearchParams":[
				"facetFlt.req_stage"
			],
			"displayTitle":{
				"en_US":"Stages",
				"fr_CA":"Stages"
			},
			"allowFreeText":false,
			"defaultFacet":true,
			"selected":true,
			"selectable":true,
			"isToggle":false,
			"selectedValues":[]
		},
		{
			"fieldSlug":"req_location",
			"component":"lwcFacetLocation",
			"reqSearchParams":[
				"location"
			],
			"displayTitle":{
				"en_US":"Location (radius is set to 30 miles)",
				"fr_CA":"Location (radius is set to 30 miles)"
			},
			"allowFreeText":false,
			"defaultFacet":true,
			"selected":true,
			"selectable":true,
			"isToggle":false,
			"selectedValues":[]
		},
		{
			"fieldSlug":"office",
			"component":"lwcFacetCheckboxTypeahead",
			"facetsRequest":[
				{
					"facetKey":"facetOption.office",
					"facetValue":"true"
				},
				{
					"facetKey":"facetOption.office.size",
					"facetValue":"50"
				},
				{
					"facetKey":"facetOption.office.contains",
					"facetValue":"--value--"
				}
			],
			"incomingFacetData":{
				"items":"aggregations.office_filter.office.buckets",
				"name":"key",
				"count":"doc_count"
			},
			"reqSearchParams":[
				"facetFlt.office"
			],
			"displayTitle":{
				"en_US":"Office",
				"fr_CA":"Bureau"
			},
			"allowFreeText":false,
			"defaultFacet":false,
			"selected":false,
			"selectable":true,
			"isToggle":false,
			"selectedValues":[]
		},
		{
			"fieldSlug":"req_skills",
			"component":"lwcFacetCheckboxTypeahead",
			"facetsRequest":[
				{
					"facetKey":"facetOption.job_skills",
					"facetValue":"true"
				},
				{
					"facetKey":"facetOption.job_skills.skills.size",
					"facetValue":"50"
				},
				{
					"facetKey":"facetOption.job_skills.skills.contains",
					"facetValue":"--value--"
				}
			],
			"incomingFacetData":{
				"items":"aggregations.job_skills_filter.job_skills.skills.buckets",
				"name":"key",
				"count":"doc_count"
			},
			"reqSearchParams":[
				"facetOption.job_skills.skills.selected",
				"nested_facet_filter.job_skills"
			],
			"displayTitle":{
				"en_US":"Skills",
				"fr_CA":"Compétences"
			},
			"allowFreeText":false,
			"defaultFacet":false,
			"selected":false,
			"selectable":true,
			"isToggle":false,
			"selectedValues":[]
		},
		{
			"fieldSlug":"job_title",
			"component":"lwcFacetCheckboxTypeahead",
			"facetsRequest":[
				{
					"facetKey":"facetOption.position_title",
					"facetValue":"true"
				},
				{
					"facetKey":"facetOption.position_title.size",
					"facetValue":"50"
				},
				{
					"facetKey":"facetOption.position_title.contains",
					"facetValue":"--value--"
				}
			],
			"incomingFacetData":{
				"items":"aggregations.position_title_filter.position_title.buckets",
				"name":"key",
				"count":"doc_count"
			},
			"reqSearchParams":[
				"facetOption.position_title.selected"
			],
			"displayTitle":{
				"en_US":"Job Title",
				"fr_CA":"Job Title"
			},
			"allowFreeText":true,
			"defaultFacet":false,
			"selected":false,
			"selectable":false,
			"isToggle":false,
			"selectedValues":[]
		},
		{
			"fieldSlug":"req_owner",
			"component":"lwcFacetCheckboxTypeahead",
			"facetsRequest":[
				{
					"facetKey":"facetOption.owner_name",
					"facetValue":"true"
				},
				{
					"facetKey":"facetOption.owner_name.size",
					"facetValue":"50"
				},
				{
					"facetKey":"facetOption.owner_name.contains",
					"facetValue":"--value--"
				}
			],
			"incomingFacetData":{
				"items":"aggregations.owner_name_filter.owner_name.buckets",
				"name":"key",
				"count":"doc_count"
			},
			"reqSearchParams":[
				"facetFlt.owner_name"
			],
			"displayTitle":{
				"en_US":"Req Owner",
				"fr_CA":"Req Owner"
			},
			"allowFreeText":false,
			"defaultFacet":false,
			"selected":false,
			"selectable":true,
			"isToggle":false,
			"selectedValues":[]
		}
	]
}