{
  "facetFlt.req_stage": {
    "component": "C_SearchFacetCheckbox",
    "config": {
      "displayTitle": {
        "en_US": "Req Stage",
        "fr_CA": "Req Stade"
      },
      "incomingFacetData": "v.facets.req_stage_filter.req_stage.buckets",
      "optionKey": "facetOption.req_stage",
      "groupDef": "{\"draft\":\"open\",\"qualified\":\"open\",\"presenting\":\"open\",\"interviewing\":\"open\",\"closed won\":\"closed\",\"closed won (partial)\":\"closed\",\"closed lost\":\"closed\",\"closed wash\":\"closed\"}",
      "initialFilter": "{\"facetFlt.req_stage\":\"draft|qualified|presenting|interviewing\"}",
      "isCollapsed": false,
      "removeFacet": true
    }
  },
  "facetFlt.owner_name": {
    "component": "C_SearchFacetFilteredCheckbox",
    "config": {
      "displayTitle": {
        "en_US": "Req Owner",
        "fr_CA": "Req Propriétaire"
      },
      "incomingFacetData": "v.facets.owner_name_filter.owner_name.buckets",
      "incomingSelectedFacets": "v.facets.owner_name_selected_filter.owner_name_selected.buckets",
      "isVisible": true,
      "sizeKey": "facetOption.owner_name.size",
      "fetchSize": 10,
      "optionKey": "facetOption.owner_name",
      "includeKey": "facetOption.owner_name.contains",
      "allowNoKeywordSearch": true,
      "helpTextMessage": {
        "en_US": "Req Owner: Is a person who created the req, the ultimate seller accountable, etc.",
        "fr_CA": "Req Propriétaire: c'Est une personne qui a créé le req, l'ultime vendeur responsable, etc."
      },
      "removeFacet": true
    }
  },
  "facetFlt.office": {
    "component": "C_SearchFacetFilteredCheckbox",
    "config": {
      "displayTitle": {
        "en_US": "Office",
        "fr_CA": "Bureau"
      },
      "incomingFacetData": "v.facets.office_filter.office.buckets",
      "incomingSelectedFacets": "v.facets.office_selected_filter.office_selected.buckets",
      "sizeKey": "facetOption.office.size",
      "fetchSize": 10,
      "optionKey": "facetOption.office",
      "includeKey": "facetOption.office.contains",
      "allowNoKeywordSearch": true,
      "removeFacet": true
    }
  },
  "facetFlt.organization_name": {
    "component": "C_SearchFacetFilteredCheckbox",
    "config": {
      "displayTitle": {
        "en_US": "Account",
        "fr_CA": "Compte"
      },
      "incomingFacetData": "v.facets.organization_name_filter.organization_name.buckets",
      "incomingSelectedFacets": "v.facets.organization_name_selected_filter.organization_name_selected.buckets",
      "sizeKey": "facetOption.organization_name.size",
      "fetchSize": 10,
      "optionKey": "facetOption.organization_name",
      "includeKey": "facetOption.organization_name.contains",
      "removeFacet": true
    }
  },
  "nested_facet_filter.job_skills": {
    "component": "C_SearchFacetFilteredCheckbox",
    "config": {
      "displayTitle": {
        "en_US": "Skills",
        "fr_CA": "Compétences"
      },
      "incomingFacetData": "v.facets.job_skills_filter.job_skills.skills.buckets",
      "incomingSelectedFacets": "v.facets.job_skills_selected_filter.job_skills_selected.skills.buckets",
      "sizeKey": "facetOption.job_skills.skills.size",
      "fetchSize": 10,
      "optionKey": "facetOption.job_skills",
      "includeKey": "facetOption.job_skills.skills.contains",
      "key": "nested_facet_filter.job_skills",
      "nestedKey": "skills",
      "relatedFacets": "",
      "removeFacet": true
    }
  },
  "facetFlt.req_skill_specialty": {
    "component": "C_SearchFacetCheckbox",
    "config": {
      "displayTitle": {
        "en_US": "Skill Specialty",
        "fr_CA": "Skill Specialty"
      },
      "incomingFacetData": "v.facets.req_skill_specialty_filter.req_skill_specialty.buckets",
      "displayOverrides": "{\"ag_emea\" : \"AG EMEA\", \"allegis partners, llc\" : \"allegis partners, LLC\", \"major, lindsey &amp; africa, llc\" : \"major, lindsey &amp; africa, LLC\"}",
      "sizeKey": "facetOption.req_skill_specialty.size",
      "fetchSize": 10,
      "optionKey": "facetOption.req_skill_specialty",
      "removeFacet": true
    }
  },
  "flt.remuneration.pay_rate": {
    "component": "C_SearchFacetSlider",
    "config": {
      "displayTitle": {
        "en_US": "Max Pay Rate(USD)",
        "fr_CA": "Max des Taux de Rémunération(USD)"
      },
      "incomingFacetData": "v.facets",
      "delimiter": ";",
      "pillPrefix": "Max Pay Rate",
      "min": 0,
      "max": 500,
      "step": 5,
      "multipliers": "[{\"label\":\"hourly\",\"factor\":\"1\"},{\"label\":\"daily\",\"factor\":\"8\"},{\"label\":\"weekly\",\"factor\":\"40\"},{\"label\":\"monthly\",\"factor\":\"160\"}]",
      "dpMap": "v.displayPropsMap",
      "removeFacet": true
    }
  },
  "flt.remuneration.bill_rate": {
    "component": "C_SearchFacetSlider",
    "config": {
      "displayTitle": {
        "en_US": "Max Bill Rate(USD)",
        "fr_CA": "Max Le projet de loi de Taux(USD)"
      },
      "incomingFacetData": "v.facets",
      "delimiter": ";",
      "pillPrefix": "Max Bill Rate",
      "min": 0,
      "max": 500,
      "step": 5,
      "multipliers": "[{\"label\":\"hourly\",\"factor\":\"1\"},{\"label\":\"daily\",\"factor\":\"8\"},{\"label\":\"weekly\",\"factor\":\"40\"},{\"label\":\"monthly\",\"factor\":\"160\"}]",
      "dpMap": "v.displayPropsMap",
      "removeFacet": true
    }
  },
  "flt.remuneration.salary": {
    "component": "C_SearchFacetSlider",
    "config": {
      "displayTitle": {
        "en_US": "Salary(USD)",
        "fr_CA": "Salaire(USD)"
      },
      "incomingFacetData": "v.facets",
      "delimiter": ";",
      "pillPrefix": "Salary",
      "min": 0,
      "max": 500000,
      "step": 500,
      "removeFacet": true
    }
  },
  "facetFlt.opco_name": {
    "component": "C_SearchFacetCheckbox",
    "config": {
      "displayTitle": {
        "en_US": "Opco",
        "fr_CA": "Opco"
      },
      "incomingFacetData": "v.facets.opco_name_filter.opco_name.buckets",
      "displayOverrides": "{\"ag_emea\" : \"AG EMEA\", \"allegis partners, llc\" : \"allegis partners, LLC\", \"major, lindsey &amp; africa, llc\" : \"major, lindsey &amp; africa, LLC\"}",
      "sizeKey": "facetOption.opco_name.size",
      "fetchSize": 15,
      "optionKey": "facetOption.opco_name",
      "removeFacet": true
    }
  },
  "flt.job_create_date": {
    "component": "C_SearchFacetSlider",
    "config": {
      "displayTitle": {
        "en_US": "Req Created Date",
        "fr_CA": "Req Date De Création"
      },
      "incomingFacetData": "v.facets",
      "delimiter": ";",
      "pillPrefix": "Req Created Date",
      "isCalendar": true,
      "bounds": "[365, 0]",
      "removeFacet": true
    }
  },
  "flt.work_remote": {
    "component": "C_SearchFacetCheckbox",
    "config": {
      "displayTitle": {
        "en_US": "100% Remote work",
        "fr_CA": "100% Le Travail À Distance"
      },
      "incomingFacetData": "v.facets",
      "options": "[{\"key\" : \"true\"}]",
      "displayOverrides": "{\"true\" : \"Yes\"}",
      "showCounts": false,
      "pillPrefix": "100% Remote work",
      "removeFacet": true
    }
  },
  "flt.can_use_approved_sub_vendor": {
    "component": "C_SearchFacetCheckbox",
    "config": {
      "displayTitle": {
        "en_US": "Can use Sub-Vendor",
        "fr_CA": "Pouvez utiliser le Sous-Fournisseur"
      },
      "incomingFacetData": "v.facets",
      "options": "[{\"key\" : \"true\"}]",
      "displayOverrides": "{\"true\" : \"Yes\"}",
      "showCounts": false,
      "pillPrefix": "Can use Sub-Vendor",
      "removeFacet": true
    }
  },
  "facetFlt.sector_description": {
    "component": "C_SearchFacetFilteredCheckbox",
    "config": {
      "displayTitle": {
        "en_US": "Industry",
        "fr_CA": "Industrie"
      },
      "incomingFacetData": "v.facets.sector_description_filter.sector_description.buckets",
      "incomingSelectedFacets": "v.facets.sector_description_selected_filter.sector_description_selected.buckets",
      "sizeKey": "facetOption.sector_description.size",
      "fetchSize": 10,
      "optionKey": "facetOption.sector_description",
      "includeKey": "facetOption.sector_description.contains",
      "helpTextMessage": {
        "en_US": "Primary industry code (NAICS) from the Account",
        "fr_CA": "Code d'industrie primaire (SCIAN) du compte"
      },
      "removeFacet": true
    }
  }
}