"ID","ISDELETED","NAME","SETUPOWNERID","CREATEDDATE","CREATEDBYID","LASTMODIFIEDDATE","LASTMODIFIEDBYID","SYSTEMMODSTAMP","OS__C","OPCO__C","LATESTVERSION__C","MINCHARSTOLISTPREDICTIONLOCATION__C","MINCHARSTOLISTPREDICTIONOTHERS__C","MINIMUMVERSION__C","USERPROFILEEDITSTATEMENT__C","WELCOMESTATEMENT__C","USERPROFILEEDITSTATEMENT2__C","ABOUTUS__C","ABOUTUS1__C","ABOUTUS2__C","ABOUTUS3__C"
"a3o1p000000Z6EuAAK","false","aerotekios","00DU0000000KEH3MAO","2019-01-12T14:58:22.000Z","0051p00000AAKGyAAP","2019-08-26T13:59:34.000Z","005U0000003qzWuIAI","2019-08-26T13:59:34.000Z","ios","aerotek","2.1","4.0","2.0","2.1","Documentation will be required for a legal name change and/or address change. Once changes on this page are saved, someone will reach out to you within 24-48 hours to discuss your request in more detail.","Discover new jobs and tools to manage your career.","{template}An update to the email address in this page will only change the address where you receive notifications from this site. Your current username of (<username>) will remain unchanged.","<p>Our People Are Everything&trade;</p>  <p>Over the past three decades we&rsquo;ve built a people-focused approach that creates rewarding career opportunities for our contract employees.</p>  <p>Each year we help hundreds of thousands of people find","jobs at Fortune 500 companies, government agencies and small to mid-sized firms across industries. With access to top jobs and a commitment to listening closely to your needs, we can help you pursue your career goals.</p>  <p><strong>Aerotek quick facts","</strong></p>  <ul>  <li>No. 1 staffing firm in North America</li>  <li>Over 300,000 people hired each year</li>  <li>19,000 active employers</li>  </ul>  <p><strong>People first, technology second</strong></p>","<p>We want to connect with you &mdash; in the way that&rsquo;s best for you. Our app is designed to give you more control and transparency into your career, and a convenient channel for staying in touch. We hope you will.</p>"
"a3o1p000000Z6EvAAK","false","tekandroid","00DU0000000KEH3MAO","2019-01-12T14:58:22.000Z","0051p00000AAKGyAAP","2019-08-26T13:59:57.000Z","005U0000003qzWuIAI","2019-08-26T13:59:57.000Z","android","tek","2.1","4.0","2.0","2.1","Documentation will be required for a legal name change and/or address change. Once changes on this page are saved, someone will reach out to you within 24-48 hours to discuss your request in more detail.","Take charge of your career, build your future. The TEKsystems app is a one-stop shop full of career resources and opportunities. Ready to take the next step? Let's get started.","{template}An update to the email address in this page will only change the address where you receive notifications from this site. Your current username of (<username>) will remain unchanged.","An industry leader in Full-Stack Technology Services, Talent Services and real-world application, we partner to create transformation.","","",""
"a3o1p000000Z6EwAAK","false","tekios","00DU0000000KEH3MAO","2019-01-12T14:58:22.000Z","0051p00000AAKGyAAP","2019-08-26T14:00:08.000Z","005U0000003qzWuIAI","2019-08-26T14:00:08.000Z","ios","tek","2.1","4.0","2.0","2.1","Documentation will be required for a legal name change and/or address change. Once changes on this page are saved, someone will reach out to you within 24-48 hours to discuss your request in more detail.","Take charge of your career, build your future. The TEKsystems app is a one-stop shop full of career resources and opportunities. Ready to take the next step? Let's get started.","{template}An update to the email address in this page will only change the address where you receive notifications from this site. Your current username of (<username>) will remain unchanged.","An industry leader in Full-Stack Technology Services, Talent Services and real-world application, we partner to create transformation.","","",""
"a3o1p000000Z6ExAAK","false","aerotekandroid","00DU0000000KEH3MAO","2019-01-12T14:58:22.000Z","0051p00000AAKGyAAP","2019-08-26T13:58:44.000Z","005U0000003qzWuIAI","2019-08-26T13:58:44.000Z","android","aerotek","2.1","4.0","2.0","2.1","Documentation will be required for a legal name change and/or address change. Once changes on this page are saved, someone will reach out to you within 24-48 hours to discuss your request in more detail.","Discover new jobs and tools to manage your career.","{template}An update to the email address in this page will only change the address where you receive notifications from this site. Your current username of (<username>) will remain unchanged.","<p>Our People Are Everything&trade;</p>  <p>Over the past three decades we&rsquo;ve built a people-focused approach that creates rewarding career opportunities for our contract employees.</p>  <p>Each year we help hundreds of thousands of people find","jobs at Fortune 500 companies, government agencies and small to mid-sized firms across industries. With access to top jobs and a commitment to listening closely to your needs, we can help you pursue your career goals.</p>  <p><strong>Aerotek quick facts","</strong></p>  <ul>  <li>No. 1 staffing firm in North America</li>  <li>Over 300,000 people hired each year</li>  <li>19,000 active employers</li>  </ul>  <p><strong>People first, technology second</strong></p>","<p>We want to connect with you &mdash; in the way that&rsquo;s best for you. Our app is designed to give you more control and transparency into your career, and a convenient channel for staying in touch. We hope you will.</p>"
