ISDELETED,NAME,SETUPOWNERID,SYSTEMMODSTAMP,PROFILE_DOMAIN__C,PROFILE_NAME__C,PROFILE_SLUG__C,SURVEY_CONDITION_LIMIT__C,SURVEY_LINK__C,ADDRESS_NAMECHANGE_FAQ_LINK__C,JOBSEARCH_FILTER__C,JOB_SEARCH_DAYS_COUNT__C,ASSIGN_END_NOTICE_DAYS_1__C,ASSIGN_END_NOTICE_DAYS_2__C,LOGIN_PAGE_URL__C,LOGO_URL_COLOR__C,OPCO_NAME__C,OPCO_LOGO_URL__C,REFERFRIEND_VERBIAGE__C,HOTJAR_ID__C
FALSE,TC_Opco_Mappings (Profile),00e24000000NUXGAA4,2017-06-28T14:47:13.000Z,,,aerotek,,,,,31,,,,,Aerotek,,,377337
FALSE,TC_Opco_Mappings (Profile),00e24000000NUXLAA4,2017-06-28T14:48:42.000Z,,,teksystems,,,,,46,,,,,TEKsystems,,,377337
FALSE,TC_Opco_Mappings (Profile),00e24000000S0XAAA0,2017-06-27T20:34:11.000Z,,,astoncarter,,,,,,,,,,,,,377337
FALSE,TC_Opco_Mappings (Organization),00D9E0000000ban,2017-06-27T02:59:48.000Z,,,,,,,,,,,,,,,,377337
FALSE,TC_Opco_Mappings (Profile),00e24000000JLa2AAG,2017-06-28T14:33:57.000Z,teksystems.com,TekSystem Community User,teksystems,3,https://augdev-allegisconnected.cs88.force.com/teksystems/TakeSurvey?id=a0r9E000000pHKFQA2&cId={!Contact.Id}&caId=none,Address-and-Legal-Name-Change-Next-Steps-TEK,OpCo__c like '%Teksystems%',45,45,15,https://augdev-allegisconnected.cs88.force.com/teksystems/tc_login,/resource/1461416058000/LogoTekSystemsColor,TEKsystems,https://allegisgroup--augdev--c.cs88.content.force.com/servlet/servlet.ImageServer?id=0159E0000000cmS&oid=00D9E0000000ban&lastMod=1500496591000,{{{TC_refer_a_friend_tagline}}},377337
FALSE,TC_Opco_Mappings (Profile),00e24000000JLa0AAG,2017-06-28T14:33:22.000Z,aerotek.com,Aerotek Community User,aerotek,3,https://augdev-allegisconnected.cs88.force.com/aerotek/TakeSurvey?id=a0r9E000000pHK5QAM&cId={!Contact.Id}&caId=none,Address-and-Legal-Name-Change-Next-Steps-Aerotek,OpCo__c like '%Aerotek%',30,30,15,https://augdev-allegisconnected.cs88.force.com/aerotek/tc_login,/resource/1466860572000/LogoAeroTekColor,Aerotek,https://allegisgroup--augdev--c.cs88.content.force.com/servlet/servlet.ImageServer?id=0159E0000000cmR&oid=00D9E0000000ban&lastMod=1500496591000,{{{TC_refer_a_friend_tagline_aerotek}}},377337
FALSE,TC_Opco_Mappings (Profile),00e24000001Ae2sAAC,2017-07-20T16:19:55.000Z,astoncarter.com,Aston Carter Community User,astoncarter,,,Address-and-Legal-Name-Change-Next-Steps-AstonCarter,OpCo__c like '%Aerotek%',30,30,15,https://augdev-allegisconnected.cs88.force.com/astoncarter/tc_login,/resource/1501597160000/LogoAstonCarterColor,Aston Carter,https://allegisgroup--augdev--c.cs88.content.force.com/servlet/servlet.ImageServer?id=0159E0000000eKe&oid=00D9E0000000ban&lastMod=1500651833000,{{{TC_refer_a_friend_tagline_aerotek}}},377337
